<?xml version="1.0"?>
<!-- Created by MetaPost 1.999 on 2018.01.25:0011 -->
<svg version="1.1" xmlns="http://www.w3.org/2000/svg" xmlns:xlink="http://www.w3.org/1999/xlink" width="102.000000" height="175.000000" viewBox="0 0 102.000000 175.000000">
<!-- Original BoundingBox: 23.000000 23.000000 102.000000 175.000000 -->
  <path d="M25.000000 150.000000L25.000000 125.000000L100.000000 100.000000" style="stroke:rgb(0.000000%,0.000000%,0.000000%); stroke-width: 4.000000;stroke-linecap: round;stroke-linejoin: round;stroke-miterlimit: 10.000000;fill: none;"></path>
  <path d="M23.000000 102.000000L27.000000 102.000000L27.000000 98.000000L27.000000 73.000000L27.000000 77.000000L102.000000 52.000000L102.000000 48.000000L98.000000 48.000000L23.000000 73.000000L23.000000 77.000000Z" style="fill: rgb(0.000000%,0.000000%,0.000000%);stroke: none;"></path>
  <path d="M23.000000 50.000000L27.000000 50.000000L27.000000 25.000000L102.000000 -0.000000L98.000000 -0.000000L23.000000 25.000000Z" style="fill: rgb(0.000000%,0.000000%,0.000000%);stroke: none;"></path>
</svg>
