<?xml version="1.0"?>
<!-- Created by MetaPost 1.999 on 2018.01.25:0011 -->
<svg version="1.1" xmlns="http://www.w3.org/2000/svg" xmlns:xlink="http://www.w3.org/1999/xlink" width="513.069946" height="342.991516" viewBox="0 0 513.069946 342.991516">
<!-- Original BoundingBox: -1.417328 -1.417328 511.652618 341.574188 -->
  <path d="M1.000000 341.000000L1.000000 0.843140" style="stroke:rgb(0.000000%,0.000000%,0.000000%); stroke-width: 2.834641;stroke-linejoin: bevel;stroke-miterlimit: 10.000000;fill: none;"></path>
  <path d="M57.692810 341.000000L57.692810 0.843140" style="stroke:rgb(0.000000%,0.000000%,0.000000%); stroke-width: 2.834641;stroke-linejoin: bevel;stroke-miterlimit: 10.000000;fill: none;"></path>
  <path d="M114.385620 341.000000L114.385620 0.843140" style="stroke:rgb(0.000000%,0.000000%,0.000000%); stroke-width: 2.834641;stroke-linejoin: bevel;stroke-miterlimit: 10.000000;fill: none;"></path>
  <path d="M171.078430 341.000000L171.078430 0.843140" style="stroke:rgb(0.000000%,0.000000%,0.000000%); stroke-width: 2.834641;stroke-linejoin: bevel;stroke-miterlimit: 10.000000;fill: none;"></path>
  <path d="M227.771240 341.000000L227.771240 0.843140" style="stroke:rgb(0.000000%,0.000000%,0.000000%); stroke-width: 2.834641;stroke-linejoin: bevel;stroke-miterlimit: 10.000000;fill: none;"></path>
  <path d="M284.464050 341.000000L284.464050 0.843140" style="stroke:rgb(0.000000%,0.000000%,0.000000%); stroke-width: 2.834641;stroke-linejoin: bevel;stroke-miterlimit: 10.000000;fill: none;"></path>
  <path d="M341.156860 341.000000L341.156860 0.843140" style="stroke:rgb(0.000000%,0.000000%,0.000000%); stroke-width: 2.834641;stroke-linejoin: bevel;stroke-miterlimit: 10.000000;fill: none;"></path>
  <path d="M397.849670 341.000000L397.849670 0.843140" style="stroke:rgb(0.000000%,0.000000%,0.000000%); stroke-width: 2.834641;stroke-linejoin: bevel;stroke-miterlimit: 10.000000;fill: none;"></path>
  <path d="M454.542480 341.000000L454.542480 0.843140" style="stroke:rgb(0.000000%,0.000000%,0.000000%); stroke-width: 2.834641;stroke-linejoin: bevel;stroke-miterlimit: 10.000000;fill: none;"></path>
  <path d="M511.235291 341.000000L511.235291 0.843140" style="stroke:rgb(0.000000%,0.000000%,0.000000%); stroke-width: 2.834641;stroke-linejoin: bevel;stroke-miterlimit: 10.000000;fill: none;"></path>
  <path d="M1.000000 341.000000L511.235291 341.000000" style="stroke:rgb(0.000000%,0.000000%,0.000000%); stroke-width: 2.834641;stroke-linejoin: bevel;stroke-miterlimit: 10.000000;fill: none;"></path>
  <path d="M1.000000 284.307190L511.235291 284.307190" style="stroke:rgb(0.000000%,0.000000%,0.000000%); stroke-width: 2.834641;stroke-linejoin: bevel;stroke-miterlimit: 10.000000;fill: none;"></path>
  <path d="M1.000000 227.614380L511.235291 227.614380" style="stroke:rgb(0.000000%,0.000000%,0.000000%); stroke-width: 2.834641;stroke-linejoin: bevel;stroke-miterlimit: 10.000000;fill: none;"></path>
  <path d="M1.000000 170.921570L511.235291 170.921570" style="stroke:rgb(0.000000%,0.000000%,0.000000%); stroke-width: 2.834641;stroke-linejoin: bevel;stroke-miterlimit: 10.000000;fill: none;"></path>
  <path d="M1.000000 114.228760L511.235291 114.228760" style="stroke:rgb(0.000000%,0.000000%,0.000000%); stroke-width: 2.834641;stroke-linejoin: bevel;stroke-miterlimit: 10.000000;fill: none;"></path>
  <path d="M1.000000 57.535950L511.235291 57.535950" style="stroke:rgb(0.000000%,0.000000%,0.000000%); stroke-width: 2.834641;stroke-linejoin: bevel;stroke-miterlimit: 10.000000;fill: none;"></path>
  <path d="M1.000000 0.843140L511.235291 0.843140" style="stroke:rgb(0.000000%,0.000000%,0.000000%); stroke-width: 2.834641;stroke-linejoin: bevel;stroke-miterlimit: 10.000000;fill: none;"></path>
</svg>
