<?xml version="1.0"?>
<!-- Created by MetaPost 1.999 on 2018.01.25:0011 -->
<svg version="1.1" xmlns="http://www.w3.org/2000/svg" xmlns:xlink="http://www.w3.org/1999/xlink" width="683.148376" height="511.652618" viewBox="0 0 683.148376 511.652618">
<!-- Original BoundingBox: -1.417328 -170.787094 681.731049 340.865524 -->
  <path d="M1.000000 -0.156860L1.000000 510.078430" style="stroke:rgb(78.431702%,78.431702%,78.431702%); stroke-width: 1.417328;stroke-linejoin: bevel;stroke-miterlimit: 10.000000;fill: none;"></path>
  <path d="M57.692810 -0.156860L57.692810 510.078430" style="stroke:rgb(78.431702%,78.431702%,78.431702%); stroke-width: 1.417328;stroke-linejoin: bevel;stroke-miterlimit: 10.000000;fill: none;"></path>
  <path d="M114.385620 -0.156860L114.385620 510.078430" style="stroke:rgb(78.431702%,78.431702%,78.431702%); stroke-width: 1.417328;stroke-linejoin: bevel;stroke-miterlimit: 10.000000;fill: none;"></path>
  <path d="M171.078430 -0.156860L171.078430 510.078430" style="stroke:rgb(78.431702%,78.431702%,78.431702%); stroke-width: 1.417328;stroke-linejoin: bevel;stroke-miterlimit: 10.000000;fill: none;"></path>
  <path d="M227.771240 -0.156860L227.771240 510.078430" style="stroke:rgb(78.431702%,78.431702%,78.431702%); stroke-width: 1.417328;stroke-linejoin: bevel;stroke-miterlimit: 10.000000;fill: none;"></path>
  <path d="M284.464050 -0.156860L284.464050 510.078430" style="stroke:rgb(78.431702%,78.431702%,78.431702%); stroke-width: 1.417328;stroke-linejoin: bevel;stroke-miterlimit: 10.000000;fill: none;"></path>
  <path d="M341.156860 -0.156860L341.156860 510.078430" style="stroke:rgb(78.431702%,78.431702%,78.431702%); stroke-width: 1.417328;stroke-linejoin: bevel;stroke-miterlimit: 10.000000;fill: none;"></path>
  <path d="M397.849670 -0.156860L397.849670 510.078430" style="stroke:rgb(78.431702%,78.431702%,78.431702%); stroke-width: 1.417328;stroke-linejoin: bevel;stroke-miterlimit: 10.000000;fill: none;"></path>
  <path d="M454.542480 -0.156860L454.542480 510.078430" style="stroke:rgb(78.431702%,78.431702%,78.431702%); stroke-width: 1.417328;stroke-linejoin: bevel;stroke-miterlimit: 10.000000;fill: none;"></path>
  <path d="M511.235291 -0.156860L511.235291 510.078430" style="stroke:rgb(78.431702%,78.431702%,78.431702%); stroke-width: 1.417328;stroke-linejoin: bevel;stroke-miterlimit: 10.000000;fill: none;"></path>
  <path d="M567.928101 -0.156860L567.928101 510.078430" style="stroke:rgb(78.431702%,78.431702%,78.431702%); stroke-width: 1.417328;stroke-linejoin: bevel;stroke-miterlimit: 10.000000;fill: none;"></path>
  <path d="M624.620911 -0.156860L624.620911 510.078430" style="stroke:rgb(78.431702%,78.431702%,78.431702%); stroke-width: 1.417328;stroke-linejoin: bevel;stroke-miterlimit: 10.000000;fill: none;"></path>
  <path d="M681.313721 -0.156860L681.313721 510.078430" style="stroke:rgb(78.431702%,78.431702%,78.431702%); stroke-width: 1.417328;stroke-linejoin: bevel;stroke-miterlimit: 10.000000;fill: none;"></path>
  <path d="M1.000000 453.385620L681.313721 453.385620" style="stroke:rgb(78.431702%,78.431702%,78.431702%); stroke-width: 1.417328;stroke-linejoin: bevel;stroke-miterlimit: 10.000000;fill: none;"></path>
  <path d="M1.000000 396.692810L681.313721 396.692810" style="stroke:rgb(78.431702%,78.431702%,78.431702%); stroke-width: 1.417328;stroke-linejoin: bevel;stroke-miterlimit: 10.000000;fill: none;"></path>
  <path d="M1.000000 340.000000L681.313721 340.000000" style="stroke:rgb(78.431702%,78.431702%,78.431702%); stroke-width: 1.417328;stroke-linejoin: bevel;stroke-miterlimit: 10.000000;fill: none;"></path>
  <path d="M1.000000 283.307190L681.313721 283.307190" style="stroke:rgb(78.431702%,78.431702%,78.431702%); stroke-width: 1.417328;stroke-linejoin: bevel;stroke-miterlimit: 10.000000;fill: none;"></path>
  <path d="M1.000000 226.614380L681.313721 226.614380" style="stroke:rgb(78.431702%,78.431702%,78.431702%); stroke-width: 1.417328;stroke-linejoin: bevel;stroke-miterlimit: 10.000000;fill: none;"></path>
  <path d="M1.000000 169.921570L681.313721 169.921570" style="stroke:rgb(78.431702%,78.431702%,78.431702%); stroke-width: 1.417328;stroke-linejoin: bevel;stroke-miterlimit: 10.000000;fill: none;"></path>
  <path d="M1.000000 113.228760L681.313721 113.228760" style="stroke:rgb(78.431702%,78.431702%,78.431702%); stroke-width: 1.417328;stroke-linejoin: bevel;stroke-miterlimit: 10.000000;fill: none;"></path>
  <path d="M1.000000 56.535950L681.313721 56.535950" style="stroke:rgb(78.431702%,78.431702%,78.431702%); stroke-width: 1.417328;stroke-linejoin: bevel;stroke-miterlimit: 10.000000;fill: none;"></path>
  <path d="M1.000000 340.000000L681.313721 340.000000" style="stroke:rgb(0.000000%,0.000000%,0.000000%); stroke-width: 2.834656;stroke-linejoin: bevel;stroke-miterlimit: 10.000000;fill: none;"></path>
  <path d="M1.000000 56.535950L681.313721 56.535950" style="stroke:rgb(62.745667%,62.745667%,62.745667%); stroke-width: 2.834656;stroke-linejoin: bevel;stroke-miterlimit: 10.000000;fill: none;"></path>
  <path d="M1.000000 169.921570L681.313721 169.921570" style="stroke:rgb(62.745667%,62.745667%,62.745667%); stroke-width: 2.834656;stroke-linejoin: bevel;stroke-miterlimit: 10.000000;fill: none;"></path>
  <path d="M1.000000 453.385620L681.313721 453.385620" style="stroke:rgb(62.745667%,62.745667%,62.745667%); stroke-width: 2.834656;stroke-linejoin: bevel;stroke-miterlimit: 10.000000;fill: none;"></path>
</svg>
