<?xml version="1.0" encoding="UTF-8" standalone="no"?>
<!-- Created by MetaPost 2.00 on 2019.04.23:1243 -->

<svg
   xmlns:dc="http://purl.org/dc/elements/1.1/"
   xmlns:cc="http://creativecommons.org/ns#"
   xmlns:rdf="http://www.w3.org/1999/02/22-rdf-syntax-ns#"
   xmlns:svg="http://www.w3.org/2000/svg"
   xmlns="http://www.w3.org/2000/svg"
   xmlns:sodipodi="http://sodipodi.sourceforge.net/DTD/sodipodi-0.dtd"
   xmlns:inkscape="http://www.inkscape.org/namespaces/inkscape"
   version="1.1"
   width="209.945404"
   height="278.953247"
   viewBox="0 0 209.945404 278.953247"
   id="svg12"
   sodipodi:docname="176.svg"
   inkscape:version="0.92.4 5da689c313, 2019-01-14">
  <metadata
     id="metadata18">
    <rdf:RDF>
      <cc:Work
         rdf:about="">
        <dc:format>image/svg+xml</dc:format>
        <dc:type
           rdf:resource="http://purl.org/dc/dcmitype/StillImage" />
      </cc:Work>
    </rdf:RDF>
  </metadata>
  <defs
     id="defs16" />
  <sodipodi:namedview
     pagecolor="#ffffff"
     bordercolor="#666666"
     borderopacity="1"
     objecttolerance="10"
     gridtolerance="10"
     guidetolerance="10"
     inkscape:pageopacity="0"
     inkscape:pageshadow="2"
     inkscape:window-width="1366"
     inkscape:window-height="731"
     id="namedview14"
     showgrid="false"
     inkscape:zoom="1.583384"
     inkscape:cx="67.999807"
     inkscape:cy="41.301668"
     inkscape:window-x="0"
     inkscape:window-y="37"
     inkscape:window-maximized="0"
     inkscape:current-layer="svg12" />
  <!-- Original BoundingBox: 0.000000 0.000000 209.945404 278.953247 -->
  <path
     style="color:#000000;font-style:normal;font-variant:normal;font-weight:normal;font-stretch:normal;font-size:medium;line-height:normal;font-family:sans-serif;font-variant-ligatures:normal;font-variant-position:normal;font-variant-caps:normal;font-variant-numeric:normal;font-variant-alternates:normal;font-feature-settings:normal;text-indent:0;text-align:start;text-decoration:none;text-decoration-line:none;text-decoration-style:solid;text-decoration-color:#000000;letter-spacing:normal;word-spacing:normal;text-transform:none;writing-mode:lr-tb;direction:ltr;text-orientation:mixed;dominant-baseline:auto;baseline-shift:baseline;text-anchor:start;white-space:normal;shape-padding:0;clip-rule:nonzero;display:inline;overflow:visible;visibility:visible;opacity:1;isolation:auto;mix-blend-mode:normal;color-interpolation:sRGB;color-interpolation-filters:linearRGB;solid-color:#000000;solid-opacity:1;vector-effect:none;fill:#000000;fill-opacity:1;fill-rule:nonzero;stroke:none;stroke-width:6.97383118;stroke-linecap:round;stroke-linejoin:round;stroke-miterlimit:10;stroke-dasharray:none;stroke-dashoffset:0;stroke-opacity:1;color-rendering:auto;image-rendering:auto;shape-rendering:auto;text-rendering:auto;enable-background:accumulate"
     d="m 75.820312,71.75 c -0.574959,-0.0024 -1.158184,0.01376 -1.748046,0.04687 -1.348258,0.07568 -2.732891,0.244978 -4.148438,0.505859 -11.324373,2.08705 -24.036183,10.606898 -31.955078,25.97461 -3.046563,5.912276 -5.268668,12.100946 -6.386719,18.335936 7.035742,5.23812 15.57424,7.88086 24.208985,7.88086 16.49126,0 32.782944,-9.38527 38.498046,-28.798828 1.201029,-4.079759 1.409091,-8.191516 0.08008,-11.738281 C 91.322483,75.826314 84.444702,71.786564 75.820312,71.75 Z M 126.79492,9.7246094 C 107.53809,9.8895153 88.531088,15.012704 71.666016,24.751953 44.378039,40.510233 24.921424,66.908729 17.904297,97.578125 c 1.826653,5.288305 4.519517,9.709225 7.736328,13.427735 1.441875,-5.5334 3.542041,-10.90171 6.128906,-15.921876 8.826543,-17.129129 23.177149,-27.111677 36.888672,-29.638672 1.713941,-0.315874 3.427296,-0.508911 5.121094,-0.576171 11.856587,-0.470797 22.808981,5.137908 27.119143,16.640625 2.02098,5.39339 1.57531,11.077105 0.0801,16.15625 -6.570825,22.320324 -25.978738,33.800784 -45.187504,33.800784 -8.686134,0 -17.351786,-2.47118 -24.914063,-7.10742 0.0058,2.19347 0.04836,4.38705 0.447266,6.56054 3.891467,21.20296 19.84194,33.69218 37.470703,36.4043 17.015026,2.6177 35.271468,-3.92574 45.589848,-21.51563 -10.35512,-28.57385 -1.42034,-60.659429 22.32617,-79.742184 1.82372,-1.465551 3.71937,-2.824204 5.67187,-4.085937 V 10.683594 C 137.1928,10.000688 131.98553,9.6801596 126.79492,9.7246094 Z M 145.81641,2.484375 a 3.4872643,3.4872643 0 0 1 3.5,2.9941406 3.4872643,3.4872643 0 0 1 0.0391,4.5937504 V 58.03125 c 7.51624,-3.680596 15.68949,-5.957863 24.11523,-6.667969 a 3.4872643,3.4872643 0 0 1 0.24414,-0.01563 3.4872643,3.4872643 0 0 1 0.3418,6.964844 c -8.72386,0.735231 -17.13904,3.35021 -24.70117,7.605469 v 58.658201 a 3.4872643,3.4872643 0 0 1 -1.19336,2.62695 c -9.98935,8.71799 -11.76653,20.97806 -7.89844,31.29297 3.86809,10.31492 13.26876,18.38282 26.52735,18.38282 20.43313,0 32.67791,-13.84964 35.55468,-29.67188 2.87677,-15.82224 -3.70857,-33.09659 -22.83398,-40.28906 a 3.4872643,3.4872643 0 1 1 2.45312,-6.52735 c 22.14505,8.32806 30.63377,29.41076 27.24219,48.06446 -3.39158,18.6537 -18.75677,35.39844 -42.41601,35.39844 -16.14137,0 -28.27633,-10.16066 -33.05664,-22.90821 -4.6069,-12.28505 -2.39649,-27.20779 8.64843,-37.77734 V 70.496094 c -0.43678,0.331947 -0.87425,0.663482 -1.30273,1.007812 -21.25034,17.076822 -29.34412,45.618044 -20.38281,71.240234 a 3.4873788,3.4873788 0 0 1 0.93945,4.38477 C 110.17954,168.77476 87.971914,177.33026 67.734375,174.2168 47.496836,171.10333 28.885938,156.26836 24.464844,132.17969 23.672798,127.86416 23.764898,123.60424 24.191406,119.39062 18.899775,114.62243 14.51454,108.52304 11.708984,100.98828 a 3.4872643,3.4872643 0 0 1 -1.023437,-3.062499 c -0.02624,-0.08741 -0.05619,-0.172003 -0.08203,-0.259765 a 3.4872643,3.4872643 0 0 1 0.960937,-3.589844 C 19.379934,62.352246 39.791584,35.105344 68.177734,18.712891 86.090524,8.368605 106.27988,2.9252909 126.73438,2.75 c 5.4763,-0.046931 10.97147,0.2921698 16.44726,1.0078125 a 3.4872643,3.4872643 0 0 1 2.63477,-1.2734375 z"
     id="path4" />
</svg>
