<?xml version="1.0" encoding="UTF-8" standalone="no"?>
<!-- Created by MetaPost 2.00 on 2019.04.23:1243 -->

<svg
   xmlns:dc="http://purl.org/dc/elements/1.1/"
   xmlns:cc="http://creativecommons.org/ns#"
   xmlns:rdf="http://www.w3.org/1999/02/22-rdf-syntax-ns#"
   xmlns:svg="http://www.w3.org/2000/svg"
   xmlns="http://www.w3.org/2000/svg"
   xmlns:sodipodi="http://sodipodi.sourceforge.net/DTD/sodipodi-0.dtd"
   xmlns:inkscape="http://www.inkscape.org/namespaces/inkscape"
   version="1.1"
   width="153.424286"
   height="278.953247"
   viewBox="0 0 153.424286 278.953247"
   id="svg8"
   sodipodi:docname="81.svg"
   inkscape:version="0.92.4 5da689c313, 2019-01-14">
  <metadata
     id="metadata14">
    <rdf:RDF>
      <cc:Work
         rdf:about="">
        <dc:format>image/svg+xml</dc:format>
        <dc:type
           rdf:resource="http://purl.org/dc/dcmitype/StillImage" />
      </cc:Work>
    </rdf:RDF>
  </metadata>
  <defs
     id="defs12" />
  <sodipodi:namedview
     pagecolor="#ffffff"
     bordercolor="#666666"
     borderopacity="1"
     objecttolerance="10"
     gridtolerance="10"
     guidetolerance="10"
     inkscape:pageopacity="0"
     inkscape:pageshadow="2"
     inkscape:window-width="1366"
     inkscape:window-height="731"
     id="namedview10"
     showgrid="false"
     inkscape:zoom="4.4784861"
     inkscape:cx="-15.504337"
     inkscape:cy="139.47662"
     inkscape:window-x="0"
     inkscape:window-y="37"
     inkscape:window-maximized="0"
     inkscape:current-layer="svg8" />
  <!-- Original BoundingBox: 0.000000 0.000000 153.424286 278.953247 -->
  <path
     style="color:#000000;font-style:normal;font-variant:normal;font-weight:normal;font-stretch:normal;font-size:medium;line-height:normal;font-family:sans-serif;font-variant-ligatures:normal;font-variant-position:normal;font-variant-caps:normal;font-variant-numeric:normal;font-variant-alternates:normal;font-feature-settings:normal;text-indent:0;text-align:start;text-decoration:none;text-decoration-line:none;text-decoration-style:solid;text-decoration-color:#000000;letter-spacing:normal;word-spacing:normal;text-transform:none;writing-mode:lr-tb;direction:ltr;text-orientation:mixed;dominant-baseline:auto;baseline-shift:baseline;text-anchor:start;white-space:normal;shape-padding:0;clip-rule:nonzero;display:inline;overflow:visible;visibility:visible;opacity:1;isolation:auto;mix-blend-mode:normal;color-interpolation:sRGB;color-interpolation-filters:linearRGB;solid-color:#000000;solid-opacity:1;vector-effect:none;fill:#000000;fill-opacity:1;fill-rule:nonzero;stroke:none;stroke-width:6.97383118;stroke-linecap:round;stroke-linejoin:round;stroke-miterlimit:10;stroke-dasharray:none;stroke-dashoffset:0;stroke-opacity:1;color-rendering:auto;image-rendering:auto;shape-rendering:auto;text-rendering:auto;enable-background:accumulate"
     d="M 63.585938,9.5078125 50.882812,15.859375 37.734375,29.007812 31.125,42.226562 24.408203,62.376953 v 33.738281 l 6.716797,20.148436 6.609375,13.22071 13.148437,13.14648 12.705079,6.35352 h 26.248047 l 8.884765,-4.44336 -17.5,-17.5 a 3.4872643,3.4872643 0 0 1 2.429688,-5.98829 3.4872643,3.4872643 0 0 1 2.501953,1.05665 l 18.455076,18.45507 11.08203,-11.08007 6.60938,-13.22071 6.71679,-20.148436 V 62.376953 L 122.29883,42.226562 115.68945,29.007812 102.54102,15.859375 89.835938,9.5078125 Z M 62.78125,2.5117188 a 3.4872643,3.4872643 0 0 1 0.400391,0.021484 H 90.660156 A 3.4872643,3.4872643 0 0 1 92.21875,2.9023438 L 106.16602,9.875 a 3.4872643,3.4872643 0 0 1 0.90625,0.654297 l 13.94921,13.947265 a 3.4872643,3.4872643 0 0 1 0.65235,0.90625 l 6.97461,13.947266 a 3.4872643,3.4872643 0 0 1 0.18945,0.457031 l 6.97266,20.921875 a 3.4872643,3.4872643 0 0 1 0.17968,1.101563 v 34.869141 a 3.4872643,3.4872643 0 0 1 -0.17968,1.103515 l -6.97266,20.921877 a 3.4872643,3.4872643 0 0 1 -0.18945,0.45703 l -6.97461,13.94727 a 3.4872643,3.4872643 0 0 1 -0.65235,0.90624 l -11.48242,11.48047 18.45508,18.45703 a 3.4872643,3.4872643 0 1 1 -4.93164,4.93165 l -19.14453,-19.14454 -11.69922,5.84961 a 3.4872643,3.4872643 0 0 1 -1.558594,0.36719 H 62.763672 a 3.4872643,3.4872643 0 0 1 -1.558594,-0.36719 l -13.947266,-6.97461 a 3.4872643,3.4872643 0 0 1 -0.90625,-0.65234 L 32.404297,134.01562 A 3.4872643,3.4872643 0 0 1 31.75,133.10938 l -6.972656,-13.94727 a 3.4872643,3.4872643 0 0 1 -0.189453,-0.45703 L 17.613281,97.783203 A 3.4872643,3.4872643 0 0 1 17.435547,96.679688 V 61.810547 a 3.4872643,3.4872643 0 0 1 0.177734,-1.101563 l 6.97461,-20.921875 a 3.4872643,3.4872643 0 0 1 0.189453,-0.457031 L 31.75,25.382812 a 3.4872643,3.4872643 0 0 1 0.654297,-0.90625 L 46.351562,10.529297 A 3.4872643,3.4872643 0 0 1 47.257812,9.875 L 60.828125,3.0898438 A 3.4872643,3.4872643 0 0 1 61.943359,2.625 3.4872643,3.4872643 0 0 1 62.78125,2.5117188 Z"
     id="path4" />
</svg>
