<?xml version="1.0" encoding="UTF-8" standalone="no"?>
<!-- Created by MetaPost 2.00 on 2019.04.23:1243 -->

<svg
   xmlns:dc="http://purl.org/dc/elements/1.1/"
   xmlns:cc="http://creativecommons.org/ns#"
   xmlns:rdf="http://www.w3.org/1999/02/22-rdf-syntax-ns#"
   xmlns:svg="http://www.w3.org/2000/svg"
   xmlns="http://www.w3.org/2000/svg"
   xmlns:sodipodi="http://sodipodi.sourceforge.net/DTD/sodipodi-0.dtd"
   xmlns:inkscape="http://www.inkscape.org/namespaces/inkscape"
   version="1.1"
   width="139.476624"
   height="285.927094"
   viewBox="0 0 139.476624 285.927094"
   id="svg14"
   sodipodi:docname="53.svg"
   inkscape:version="0.92.4 5da689c313, 2019-01-14">
  <metadata
     id="metadata20">
    <rdf:RDF>
      <cc:Work
         rdf:about="">
        <dc:format>image/svg+xml</dc:format>
        <dc:type
           rdf:resource="http://purl.org/dc/dcmitype/StillImage" />
      </cc:Work>
    </rdf:RDF>
  </metadata>
  <defs
     id="defs18" />
  <sodipodi:namedview
     pagecolor="#ffffff"
     bordercolor="#666666"
     borderopacity="1"
     objecttolerance="10"
     gridtolerance="10"
     guidetolerance="10"
     inkscape:pageopacity="0"
     inkscape:pageshadow="2"
     inkscape:window-width="1366"
     inkscape:window-height="731"
     id="namedview16"
     showgrid="false"
     inkscape:zoom="1.8990309"
     inkscape:cx="-24.783585"
     inkscape:cy="142.96355"
     inkscape:window-x="0"
     inkscape:window-y="37"
     inkscape:window-maximized="0"
     inkscape:current-layer="svg14" />
  <!-- Original BoundingBox: 0.000000 -3.486923 139.476624 282.440170 -->
  <path
     d="M13.947662 58.837402L69.738312 156.471039"
     style="stroke:rgb(0.000000%,0.000000%,0.000000%); stroke-width: 6.973831;stroke-linecap: round;stroke-linejoin: round;stroke-miterlimit: 10.000000;fill: none;"
     id="path4" />
  <path
     d="M111.581299 93.706558L69.738312 156.471039"
     style="stroke:rgb(0.000000%,0.000000%,100.000000%); stroke-width: 6.973831;stroke-linecap: round;stroke-linejoin: round;stroke-miterlimit: 10.000000;fill: none;"
     id="path6" />
  <path
     d="M127.895325 93.706558L127.895325 93.706558"
     style="stroke:rgb(0.000000%,0.000000%,0.000000%); stroke-width: 6.973831;stroke-linecap: round;stroke-linejoin: round;stroke-miterlimit: 10.000000;fill: none;"
     id="path8" />
  <path
     d="M127.895325 16.994415L134.869156 10.020584L127.895325 3.046753L120.921494 10.020584L127.895325 16.994415"
     style="stroke:rgb(0.000000%,0.000000%,0.000000%); stroke-width: 6.973831;stroke-linecap: round;stroke-linejoin: round;stroke-miterlimit: 10.000000;fill: none;"
     id="path10" />
  <path
     d="M100.000000 282.000000L127.895325 93.706558"
     style="stroke:rgb(0.000000%,0.000000%,100.000000%); stroke-width: 6.973831;stroke-linecap: round;stroke-linejoin: round;stroke-miterlimit: 10.000000;fill: none;"
     id="path12" />
</svg>
