<?xml version="1.0" encoding="UTF-8" standalone="no"?>
<!-- Created by MetaPost 2.00 on 2019.04.23:1243 -->

<svg
   xmlns:dc="http://purl.org/dc/elements/1.1/"
   xmlns:cc="http://creativecommons.org/ns#"
   xmlns:rdf="http://www.w3.org/1999/02/22-rdf-syntax-ns#"
   xmlns:svg="http://www.w3.org/2000/svg"
   xmlns="http://www.w3.org/2000/svg"
   xmlns:sodipodi="http://sodipodi.sourceforge.net/DTD/sodipodi-0.dtd"
   xmlns:inkscape="http://www.inkscape.org/namespaces/inkscape"
   version="1.1"
   width="198.754196"
   height="278.953247"
   viewBox="0 0 198.754196 278.953247"
   id="svg6"
   sodipodi:docname="76.svg"
   inkscape:version="0.92.4 5da689c313, 2019-01-14">
  <metadata
     id="metadata12">
    <rdf:RDF>
      <cc:Work
         rdf:about="">
        <dc:format>image/svg+xml</dc:format>
        <dc:type
           rdf:resource="http://purl.org/dc/dcmitype/StillImage" />
      </cc:Work>
    </rdf:RDF>
  </metadata>
  <defs
     id="defs10" />
  <sodipodi:namedview
     pagecolor="#ffffff"
     bordercolor="#666666"
     borderopacity="1"
     objecttolerance="10"
     gridtolerance="10"
     guidetolerance="10"
     inkscape:pageopacity="0"
     inkscape:pageshadow="2"
     inkscape:window-width="1366"
     inkscape:window-height="731"
     id="namedview8"
     showgrid="false"
     inkscape:zoom="1.9465067"
     inkscape:cx="88.22099"
     inkscape:cy="139.47662"
     inkscape:window-x="0"
     inkscape:window-y="37"
     inkscape:window-maximized="0"
     inkscape:current-layer="svg6" />
  <!-- Original BoundingBox: 0.000000 0.000000 198.754196 278.953247 -->
  <path
     d="M13.947662 6.020584L13.947662 152.471039L104.607468 152.471039C46.953445 131.112961,64.095215 45.404099,125.528961 47.863571C185.526062 50.265518,196.748428 134.433228,139.476624 152.471039L83.685974 96.680389L195.267273 96.680389"
     style="stroke:rgb(0.000000%,0.000000%,0.000000%); stroke-width: 6.973831;stroke-linecap: round;stroke-linejoin: round;stroke-miterlimit: 10.000000;fill: none;"
     id="path4" />
</svg>
