<?xml version="1.0" encoding="UTF-8" standalone="no"?>
<!-- Created by MetaPost 2.00 on 2019.04.23:1243 -->

<svg
   xmlns:dc="http://purl.org/dc/elements/1.1/"
   xmlns:cc="http://creativecommons.org/ns#"
   xmlns:rdf="http://www.w3.org/1999/02/22-rdf-syntax-ns#"
   xmlns:svg="http://www.w3.org/2000/svg"
   xmlns="http://www.w3.org/2000/svg"
   xmlns:sodipodi="http://sodipodi.sourceforge.net/DTD/sodipodi-0.dtd"
   xmlns:inkscape="http://www.inkscape.org/namespaces/inkscape"
   version="1.1"
   width="139.476624"
   height="278.953247"
   viewBox="0 0 139.476624 278.953247"
   id="svg6"
   sodipodi:docname="83.svg"
   inkscape:version="0.92.4 5da689c313, 2019-01-14">
  <metadata
     id="metadata12">
    <rdf:RDF>
      <cc:Work
         rdf:about="">
        <dc:format>image/svg+xml</dc:format>
        <dc:type
           rdf:resource="http://purl.org/dc/dcmitype/StillImage" />
      </cc:Work>
    </rdf:RDF>
  </metadata>
  <defs
     id="defs10" />
  <sodipodi:namedview
     pagecolor="#ffffff"
     bordercolor="#666666"
     borderopacity="1"
     objecttolerance="10"
     gridtolerance="10"
     guidetolerance="10"
     inkscape:pageopacity="0"
     inkscape:pageshadow="2"
     inkscape:window-width="1366"
     inkscape:window-height="731"
     id="namedview8"
     showgrid="false"
     inkscape:zoom="1.9465067"
     inkscape:cx="-22.478168"
     inkscape:cy="139.47662"
     inkscape:window-x="0"
     inkscape:window-y="37"
     inkscape:window-maximized="0"
     inkscape:current-layer="svg6" />
  <!-- Original BoundingBox: 0.000000 0.000000 139.476624 278.953247 -->
  <path
     d="M118.555130 26.942078L104.607468 12.994415L83.685974 6.020584L55.790649 6.020584L34.869156 12.994415L20.921494 26.942078L20.921494 40.889740L27.895325 54.837402L34.869156 61.811234L48.816818 68.785065L90.659805 82.732727L104.607468 89.706558L111.581299 96.680389L118.555130 110.628052L118.555130 131.549545L104.607468 145.497208L83.685974 152.471039L55.790649 152.471039L34.869156 145.497208L20.921494 131.549545"
     style="stroke:rgb(0.000000%,0.000000%,0.000000%); stroke-width: 6.973831;stroke-linecap: round;stroke-linejoin: round;stroke-miterlimit: 10.000000;fill: none;"
     id="path4" />
</svg>
