<?xml version="1.0"?>
<!-- Created by MetaPost 2.00 on 2019.04.23:1243 -->
<svg version="1.1" xmlns="http://www.w3.org/2000/svg" xmlns:xlink="http://www.w3.org/1999/xlink" width="209.214935" height="278.953247" viewBox="0 0 209.214935 278.953247">
<!-- Original BoundingBox: 0.000000 0.000000 209.214935 278.953247 -->
  <path d="M0.000000 278.000000L209.214935 278.000000L209.214935 -0.953247L0.000000 -0.953247Z" style="stroke:rgb(100.000000%,0.000000%,0.000000%); stroke-width: 0.000000;stroke-linecap: round;stroke-linejoin: round;stroke-miterlimit: 10.000000;fill: none;"></path>
  <path d="M27.895325 54.837402L27.895325 152.471039" style="stroke:rgb(0.000000%,0.000000%,0.000000%); stroke-width: 6.973831;stroke-linecap: round;stroke-linejoin: round;stroke-miterlimit: 10.000000;fill: none;"></path>
  <path d="M27.895325 82.732727L48.816818 61.811234L62.764481 54.837402L83.685974 54.837402L97.633636 61.811234L104.607468 82.732727L104.607468 152.471039" style="stroke:rgb(0.000000%,0.000000%,0.000000%); stroke-width: 6.973831;stroke-linecap: round;stroke-linejoin: round;stroke-miterlimit: 10.000000;fill: none;"></path>
  <path d="M104.607468 82.732727L125.528961 61.811234L139.476624 54.837402L160.398117 54.837402L174.345779 61.811234L181.319611 82.732727L181.319611 152.471039" style="stroke:rgb(0.000000%,0.000000%,0.000000%); stroke-width: 6.973831;stroke-linecap: round;stroke-linejoin: round;stroke-miterlimit: 10.000000;fill: none;"></path>
</svg>
