<?xml version="1.0"?>
<!-- Created by MetaPost 2.00 on 2019.04.23:1243 -->
<svg version="1.1" xmlns="http://www.w3.org/2000/svg" xmlns:xlink="http://www.w3.org/1999/xlink" width="209.214935" height="278.953247" viewBox="0 0 209.214935 278.953247">
<!-- Original BoundingBox: 0.000000 0.000000 209.214935 278.953247 -->
  <path d="M0.000000 278.000000L209.214935 278.000000L209.214935 -0.953247L0.000000 -0.953247Z" style="stroke:rgb(100.000000%,0.000000%,0.000000%); stroke-width: 0.000000;stroke-linecap: round;stroke-linejoin: round;stroke-miterlimit: 10.000000;fill: none;"></path>
  <path d="M13.947662 6.020584L13.947662 152.471039L104.607468 152.471039C58.575241 125.266022,72.574219 55.271194,125.528961 47.863571C155.119400 43.724289,181.494324 66.802353,181.319611 96.680389L181.319611 152.471039C156.533493 158.053787,131.020493 146.714661,118.555130 124.575714C113.767319 116.072388,111.358337 106.436417,111.581299 96.680389L195.267273 96.680389" style="stroke:rgb(0.000000%,0.000000%,0.000000%); stroke-width: 6.973831;stroke-linecap: round;stroke-linejoin: round;stroke-miterlimit: 10.000000;fill: none;"></path>
</svg>
