<?xml version="1.0"?>
<!-- Created by MetaPost 2.00 on 2019.04.23:1243 -->
<svg version="1.1" xmlns="http://www.w3.org/2000/svg" xmlns:xlink="http://www.w3.org/1999/xlink" width="836.859741" height="278.953247" viewBox="0 0 836.859741 278.953247">
<!-- Original BoundingBox: 0.000000 0.000000 836.859741 278.953247 -->
  <path d="M0.000000 278.000000L836.859741 278.000000L836.859741 -0.953247L0.000000 -0.953247Z" style="stroke:rgb(100.000000%,0.000000%,0.000000%); stroke-width: 0.000000;stroke-linecap: round;stroke-linejoin: round;stroke-miterlimit: 10.000000;fill: none;"></path>
</svg>
