<?xml version="1.0"?>
<!-- Created by MetaPost 2.00 on 2019.04.23:1243 -->
<svg version="1.1" xmlns="http://www.w3.org/2000/svg" xmlns:xlink="http://www.w3.org/1999/xlink" width="139.476624" height="278.953247" viewBox="0 0 139.476624 278.953247">
<!-- Original BoundingBox: 0.000000 0.000000 139.476624 278.953247 -->
  <path d="M0.000000 278.000000L139.476624 278.000000L139.476624 -0.953247L0.000000 -0.953247Z" style="stroke:rgb(100.000000%,0.000000%,0.000000%); stroke-width: 0.000000;stroke-linecap: round;stroke-linejoin: round;stroke-miterlimit: 10.000000;fill: none;"></path>
  <path d="M27.895325 40.889740L27.895325 33.915909L34.869156 19.968246L41.842987 12.994415L55.790649 6.020584L83.685974 6.020584L97.633636 12.994415L104.607468 19.968246L111.581299 33.915909L111.581299 47.863571L104.607468 61.811234L90.659805 82.732727L20.921494 152.471039L118.555130 152.471039" style="stroke:rgb(0.000000%,0.000000%,0.000000%); stroke-width: 6.973831;stroke-linecap: round;stroke-linejoin: round;stroke-miterlimit: 10.000000;fill: none;"></path>
</svg>
