<?xml version="1.0"?>
<!-- Created by MetaPost 2.00 on 2019.04.23:1243 -->
<svg version="1.1" xmlns="http://www.w3.org/2000/svg" xmlns:xlink="http://www.w3.org/1999/xlink" width="214.875885" height="278.953247" viewBox="0 0 214.875885 278.953247">
<!-- Original BoundingBox: -23.095520 0.000000 191.780365 278.953247 -->
  <path d="M23.000000 278.000000L162.476624 278.000000L162.476624 -0.953247L23.000000 -0.953247Z" style="stroke:rgb(100.000000%,0.000000%,0.000000%); stroke-width: 0.000000;stroke-linecap: round;stroke-linejoin: round;stroke-miterlimit: 10.000000;fill: none;"></path>
  <path d="M127.607468 89.706558L120.633636 187.340195C117.289169 167.624954,93.295364 159.627014,78.790649 173.392532C60.363510 190.880569,82.715683 236.299667,50.895325 243.130844C-36.809875 261.959351,12.949753 112.680435,71.816818 180.366364" style="stroke:rgb(0.000000%,0.000000%,0.000000%); stroke-width: 6.973831;stroke-linecap: round;stroke-linejoin: round;stroke-miterlimit: 10.000000;fill: none;"></path>
  <path d="M141.555130 117.601883C134.077240 98.149094,124.735306 79.465210,113.659805 61.811234C100.363266 40.617004,80.934708 21.217911,57.869156 26.942078C25.476822 34.980865,18.762344 79.152405,43.921494 110.628052C62.353592 133.687744,91.052536 145.497208,120.633636 145.497208" style="stroke:rgb(0.000000%,0.000000%,0.000000%); stroke-width: 6.973831;stroke-linecap: round;stroke-linejoin: round;stroke-miterlimit: 10.000000;fill: none;"></path>
  <path d="M141.555130 117.601883C132.721680 132.675339,132.721680 151.345245,141.555130 166.418701C147.683136 176.875580,157.649292 184.605606,169.450455 187.340195C184.910889 190.922714,201.074600 185.534805,211.293442 173.392532" style="stroke:rgb(0.000000%,0.000000%,0.000000%); stroke-width: 6.973831;stroke-linecap: round;stroke-linejoin: round;stroke-miterlimit: 10.000000;fill: none;"></path>
  <path d="M204.319611 54.837402L169.450455 187.340195" style="stroke:rgb(0.000000%,0.000000%,0.000000%); stroke-width: 6.973831;stroke-linecap: round;stroke-linejoin: round;stroke-miterlimit: 10.000000;fill: none;"></path>
</svg>
