<?xml version="1.0"?>
<!-- Created by MetaPost 2.00 on 2019.04.23:1243 -->
<svg version="1.1" xmlns="http://www.w3.org/2000/svg" xmlns:xlink="http://www.w3.org/1999/xlink" width="125.528961" height="278.953247" viewBox="0 0 125.528961 278.953247">
<!-- Original BoundingBox: 0.000000 0.000000 125.528961 278.953247 -->
  <path d="M0.000000 278.000000L125.528961 278.000000L125.528961 -0.953247L0.000000 -0.953247Z" style="stroke:rgb(100.000000%,0.000000%,0.000000%); stroke-width: 0.000000;stroke-linecap: round;stroke-linejoin: round;stroke-miterlimit: 10.000000;fill: none;"></path>
  <path d="M27.895325 6.020584L27.895325 152.471039" style="stroke:rgb(0.000000%,0.000000%,0.000000%); stroke-width: 6.973831;stroke-linecap: round;stroke-linejoin: round;stroke-miterlimit: 10.000000;fill: none;"></path>
  <path d="M27.895325 75.758896L41.842987 61.811234L55.790649 54.837402L76.712143 54.837402L90.659805 61.811234L104.607468 75.758896L111.581299 96.680389L111.581299 110.628052L104.607468 131.549545L90.659805 145.497208L76.712143 152.471039L55.790649 152.471039L41.842987 145.497208L27.895325 131.549545" style="stroke:rgb(0.000000%,0.000000%,0.000000%); stroke-width: 6.973831;stroke-linecap: round;stroke-linejoin: round;stroke-miterlimit: 10.000000;fill: none;"></path>
</svg>
