<?xml version="1.0"?>
<!-- Created by MetaPost 2.00 on 2019.03.29:1424 -->
<svg version="1.1" xmlns="http://www.w3.org/2000/svg" xmlns:xlink="http://www.w3.org/1999/xlink" width="125.528961" height="278.953247" viewBox="0 0 125.528961 278.953247">
<!-- Original BoundingBox: 0.000000 0.000000 125.528961 278.953247 -->
  <path d="M0.000000 278.000000L125.528961 278.000000L125.528961 -0.953247L0.000000 -0.953247Z" style="stroke:rgb(100.000000%,0.000000%,0.000000%); stroke-width: 0.000000;stroke-linecap: round;stroke-linejoin: round;stroke-miterlimit: 10.000000;fill: none;"></path>
  <g transform="matrix(0.707107,-0.707107,0.707107,0.707107,0.000000,0.000000)">
    <path d="M-23.982169 53.569629L-38.775899 176.850712" style="stroke:rgb(0.000000%,0.000000%,0.000000%); stroke-width: 6.973832;stroke-linecap: round;stroke-linejoin: round;stroke-miterlimit: 10.000000;fill: none;"></path>
  </g>
  <g transform="matrix(0.707107,-0.707107,0.707107,0.707107,0.000000,0.000000)">
    <path d="M30.261507 107.813305L-93.019576 122.607035" style="stroke:rgb(0.000000%,0.000000%,0.000000%); stroke-width: 6.973832;stroke-linecap: round;stroke-linejoin: round;stroke-miterlimit: 10.000000;fill: none;"></path>
  </g>
</svg>
