<?xml version="1.0"?>
<!-- Created by MetaPost 2.00 on 2019.03.29:1424 -->
<svg version="1.1" xmlns="http://www.w3.org/2000/svg" xmlns:xlink="http://www.w3.org/1999/xlink" width="139.476624" height="278.953247" viewBox="0 0 139.476624 278.953247">
<!-- Original BoundingBox: 0.000000 0.000000 139.476624 278.953247 -->
  <path d="M0.000000 278.000000L139.476624 278.000000L139.476624 -0.953247L0.000000 -0.953247Z" style="stroke:rgb(100.000000%,0.000000%,0.000000%); stroke-width: 0.000000;stroke-linecap: round;stroke-linejoin: round;stroke-miterlimit: 10.000000;fill: none;"></path>
  <g transform="matrix(0.707107,-0.707107,0.707107,0.707107,0.000000,0.000000)">
    <path d="M15.467777 23.982169L-88.088332 127.538279" style="stroke:rgb(0.000000%,0.000000%,0.000000%); stroke-width: 6.973832;stroke-linecap: round;stroke-linejoin: round;stroke-miterlimit: 10.000000;fill: none;"></path>
  </g>
  <g transform="matrix(0.707107,-0.707107,0.707107,0.707107,0.000000,0.000000)">
    <path d="M15.467777 23.982169L59.848967 68.363359L69.711454 88.088332L69.711454 97.950819L64.780211 112.744549L49.986481 127.538279L35.192751 132.469522L25.330264 132.469522L5.605291 122.607035L-38.775899 78.225846" style="stroke:rgb(0.000000%,0.000000%,0.000000%); stroke-width: 6.973832;stroke-linecap: round;stroke-linejoin: round;stroke-miterlimit: 10.000000;fill: none;"></path>
  </g>
</svg>
