<?xml version="1.0"?>
<!-- Created by MetaPost 2.00 on 2019.03.29:1424 -->
<svg version="1.1" xmlns="http://www.w3.org/2000/svg" xmlns:xlink="http://www.w3.org/1999/xlink" width="139.476624" height="278.953247" viewBox="0 0 139.476624 278.953247">
<!-- Original BoundingBox: 0.000000 0.000000 139.476624 278.953247 -->
  <path d="M0.000000 278.000000L139.476624 278.000000L139.476624 -0.953247L0.000000 -0.953247Z" style="stroke:rgb(100.000000%,0.000000%,0.000000%); stroke-width: 0.000000;stroke-linecap: round;stroke-linejoin: round;stroke-miterlimit: 10.000000;fill: none;"></path>
  <g transform="matrix(0.707107,-0.707107,0.707107,0.707107,0.000000,0.000000)">
    <path d="M64.780211 102.882062L64.780211 83.157089L54.917724 63.432116L35.192751 43.707142L15.467777 33.844656L-4.257196 33.844656L-14.119682 43.707142L-19.050926 58.500872L-19.050926 68.363359L-14.119682 83.157089L5.605291 122.607035L10.536534 137.400765L10.536534 147.263252L5.605291 162.056982L-9.188439 176.850712L-28.913412 176.850712L-48.638386 166.988225L-68.363359 147.263252L-78.225846 127.538279L-78.225846 107.813305" style="stroke:rgb(0.000000%,0.000000%,0.000000%); stroke-width: 6.973832;stroke-linecap: round;stroke-linejoin: round;stroke-miterlimit: 10.000000;fill: none;"></path>
  </g>
</svg>
