<?xml version="1.0"?>
<!-- Created by MetaPost 2.00 on 2019.03.28:1412 -->
<svg version="1.1" xmlns="http://www.w3.org/2000/svg" xmlns:xlink="http://www.w3.org/1999/xlink" width="141.076630" height="280.553253" viewBox="0 0 141.076630 280.553253">
<!-- Original BoundingBox: -1.500000 -1.500000 139.576630 279.053253 -->
  <path d="M1.000000 279.000000L140.476624 279.000000L140.476624 0.046753L1.000000 0.046753Z" style="stroke:rgb(100.000000%,0.000000%,0.000000%); stroke-width: 0.000000;stroke-linecap: round;stroke-linejoin: round;stroke-miterlimit: 10.000000;fill: none;"></path>
  <path d="M1.000000 0.046753L1.000000 279.000000" style="stroke:rgb(100.000000%,60.000610%,78.431702%); stroke-width: 0.199997;stroke-linecap: round;stroke-linejoin: round;stroke-miterlimit: 10.000000;fill: none;"></path>
  <path d="M7.973831 0.046753L7.973831 279.000000" style="stroke:rgb(100.000000%,60.000610%,78.431702%); stroke-width: 0.199997;stroke-linecap: round;stroke-linejoin: round;stroke-miterlimit: 10.000000;fill: none;"></path>
  <path d="M14.947662 0.046753L14.947662 279.000000" style="stroke:rgb(100.000000%,60.000610%,78.431702%); stroke-width: 0.199997;stroke-linecap: round;stroke-linejoin: round;stroke-miterlimit: 10.000000;fill: none;"></path>
  <path d="M21.921494 0.046753L21.921494 279.000000" style="stroke:rgb(100.000000%,60.000610%,78.431702%); stroke-width: 0.199997;stroke-linecap: round;stroke-linejoin: round;stroke-miterlimit: 10.000000;fill: none;"></path>
  <path d="M28.895325 0.046753L28.895325 279.000000" style="stroke:rgb(100.000000%,60.000610%,78.431702%); stroke-width: 0.199997;stroke-linecap: round;stroke-linejoin: round;stroke-miterlimit: 10.000000;fill: none;"></path>
  <path d="M35.869156 0.046753L35.869156 279.000000" style="stroke:rgb(100.000000%,60.000610%,78.431702%); stroke-width: 0.199997;stroke-linecap: round;stroke-linejoin: round;stroke-miterlimit: 10.000000;fill: none;"></path>
  <path d="M42.842987 0.046753L42.842987 279.000000" style="stroke:rgb(100.000000%,60.000610%,78.431702%); stroke-width: 0.199997;stroke-linecap: round;stroke-linejoin: round;stroke-miterlimit: 10.000000;fill: none;"></path>
  <path d="M49.816818 0.046753L49.816818 279.000000" style="stroke:rgb(100.000000%,60.000610%,78.431702%); stroke-width: 0.199997;stroke-linecap: round;stroke-linejoin: round;stroke-miterlimit: 10.000000;fill: none;"></path>
  <path d="M56.790649 0.046753L56.790649 279.000000" style="stroke:rgb(100.000000%,60.000610%,78.431702%); stroke-width: 0.199997;stroke-linecap: round;stroke-linejoin: round;stroke-miterlimit: 10.000000;fill: none;"></path>
  <path d="M63.764481 0.046753L63.764481 279.000000" style="stroke:rgb(100.000000%,60.000610%,78.431702%); stroke-width: 0.199997;stroke-linecap: round;stroke-linejoin: round;stroke-miterlimit: 10.000000;fill: none;"></path>
  <path d="M70.738312 0.046753L70.738312 279.000000" style="stroke:rgb(100.000000%,60.000610%,78.431702%); stroke-width: 0.199997;stroke-linecap: round;stroke-linejoin: round;stroke-miterlimit: 10.000000;fill: none;"></path>
  <path d="M77.712143 0.046753L77.712143 279.000000" style="stroke:rgb(100.000000%,60.000610%,78.431702%); stroke-width: 0.199997;stroke-linecap: round;stroke-linejoin: round;stroke-miterlimit: 10.000000;fill: none;"></path>
  <path d="M84.685974 0.046753L84.685974 279.000000" style="stroke:rgb(100.000000%,60.000610%,78.431702%); stroke-width: 0.199997;stroke-linecap: round;stroke-linejoin: round;stroke-miterlimit: 10.000000;fill: none;"></path>
  <path d="M91.659805 0.046753L91.659805 279.000000" style="stroke:rgb(100.000000%,60.000610%,78.431702%); stroke-width: 0.199997;stroke-linecap: round;stroke-linejoin: round;stroke-miterlimit: 10.000000;fill: none;"></path>
  <path d="M98.633636 0.046753L98.633636 279.000000" style="stroke:rgb(100.000000%,60.000610%,78.431702%); stroke-width: 0.199997;stroke-linecap: round;stroke-linejoin: round;stroke-miterlimit: 10.000000;fill: none;"></path>
  <path d="M105.607468 0.046753L105.607468 279.000000" style="stroke:rgb(100.000000%,60.000610%,78.431702%); stroke-width: 0.199997;stroke-linecap: round;stroke-linejoin: round;stroke-miterlimit: 10.000000;fill: none;"></path>
  <path d="M112.581299 0.046753L112.581299 279.000000" style="stroke:rgb(100.000000%,60.000610%,78.431702%); stroke-width: 0.199997;stroke-linecap: round;stroke-linejoin: round;stroke-miterlimit: 10.000000;fill: none;"></path>
  <path d="M119.555130 0.046753L119.555130 279.000000" style="stroke:rgb(100.000000%,60.000610%,78.431702%); stroke-width: 0.199997;stroke-linecap: round;stroke-linejoin: round;stroke-miterlimit: 10.000000;fill: none;"></path>
  <path d="M126.528961 0.046753L126.528961 279.000000" style="stroke:rgb(100.000000%,60.000610%,78.431702%); stroke-width: 0.199997;stroke-linecap: round;stroke-linejoin: round;stroke-miterlimit: 10.000000;fill: none;"></path>
  <path d="M133.502792 0.046753L133.502792 279.000000" style="stroke:rgb(100.000000%,60.000610%,78.431702%); stroke-width: 0.199997;stroke-linecap: round;stroke-linejoin: round;stroke-miterlimit: 10.000000;fill: none;"></path>
  <path d="M140.476624 0.046753L140.476624 279.000000" style="stroke:rgb(100.000000%,60.000610%,78.431702%); stroke-width: 0.199997;stroke-linecap: round;stroke-linejoin: round;stroke-miterlimit: 10.000000;fill: none;"></path>
  <path d="M140.476624 279.000000L1.000000 279.000000" style="stroke:rgb(100.000000%,60.000610%,78.431702%); stroke-width: 0.199997;stroke-linecap: round;stroke-linejoin: round;stroke-miterlimit: 10.000000;fill: none;"></path>
  <path d="M140.476624 272.026169L1.000000 272.026169" style="stroke:rgb(100.000000%,60.000610%,78.431702%); stroke-width: 0.199997;stroke-linecap: round;stroke-linejoin: round;stroke-miterlimit: 10.000000;fill: none;"></path>
  <path d="M140.476624 265.052338L1.000000 265.052338" style="stroke:rgb(100.000000%,60.000610%,78.431702%); stroke-width: 0.199997;stroke-linecap: round;stroke-linejoin: round;stroke-miterlimit: 10.000000;fill: none;"></path>
  <path d="M140.476624 258.078506L1.000000 258.078506" style="stroke:rgb(100.000000%,60.000610%,78.431702%); stroke-width: 0.199997;stroke-linecap: round;stroke-linejoin: round;stroke-miterlimit: 10.000000;fill: none;"></path>
  <path d="M140.476624 251.104675L1.000000 251.104675" style="stroke:rgb(100.000000%,60.000610%,78.431702%); stroke-width: 0.199997;stroke-linecap: round;stroke-linejoin: round;stroke-miterlimit: 10.000000;fill: none;"></path>
  <path d="M140.476624 244.130844L1.000000 244.130844" style="stroke:rgb(100.000000%,60.000610%,78.431702%); stroke-width: 0.199997;stroke-linecap: round;stroke-linejoin: round;stroke-miterlimit: 10.000000;fill: none;"></path>
  <path d="M140.476624 237.157013L1.000000 237.157013" style="stroke:rgb(100.000000%,60.000610%,78.431702%); stroke-width: 0.199997;stroke-linecap: round;stroke-linejoin: round;stroke-miterlimit: 10.000000;fill: none;"></path>
  <path d="M140.476624 230.183182L1.000000 230.183182" style="stroke:rgb(100.000000%,60.000610%,78.431702%); stroke-width: 0.199997;stroke-linecap: round;stroke-linejoin: round;stroke-miterlimit: 10.000000;fill: none;"></path>
  <path d="M140.476624 223.209351L1.000000 223.209351" style="stroke:rgb(100.000000%,60.000610%,78.431702%); stroke-width: 0.199997;stroke-linecap: round;stroke-linejoin: round;stroke-miterlimit: 10.000000;fill: none;"></path>
  <path d="M140.476624 216.235519L1.000000 216.235519" style="stroke:rgb(100.000000%,60.000610%,78.431702%); stroke-width: 0.199997;stroke-linecap: round;stroke-linejoin: round;stroke-miterlimit: 10.000000;fill: none;"></path>
  <path d="M140.476624 209.261688L1.000000 209.261688" style="stroke:rgb(100.000000%,60.000610%,78.431702%); stroke-width: 0.199997;stroke-linecap: round;stroke-linejoin: round;stroke-miterlimit: 10.000000;fill: none;"></path>
  <path d="M140.476624 202.287857L1.000000 202.287857" style="stroke:rgb(100.000000%,60.000610%,78.431702%); stroke-width: 0.199997;stroke-linecap: round;stroke-linejoin: round;stroke-miterlimit: 10.000000;fill: none;"></path>
  <path d="M140.476624 195.314026L1.000000 195.314026" style="stroke:rgb(100.000000%,60.000610%,78.431702%); stroke-width: 0.199997;stroke-linecap: round;stroke-linejoin: round;stroke-miterlimit: 10.000000;fill: none;"></path>
  <path d="M140.476624 188.340195L1.000000 188.340195" style="stroke:rgb(100.000000%,60.000610%,78.431702%); stroke-width: 0.199997;stroke-linecap: round;stroke-linejoin: round;stroke-miterlimit: 10.000000;fill: none;"></path>
  <path d="M140.476624 181.366364L1.000000 181.366364" style="stroke:rgb(100.000000%,60.000610%,78.431702%); stroke-width: 0.199997;stroke-linecap: round;stroke-linejoin: round;stroke-miterlimit: 10.000000;fill: none;"></path>
  <path d="M140.476624 174.392532L1.000000 174.392532" style="stroke:rgb(100.000000%,60.000610%,78.431702%); stroke-width: 0.199997;stroke-linecap: round;stroke-linejoin: round;stroke-miterlimit: 10.000000;fill: none;"></path>
  <path d="M140.476624 167.418701L1.000000 167.418701" style="stroke:rgb(100.000000%,60.000610%,78.431702%); stroke-width: 0.199997;stroke-linecap: round;stroke-linejoin: round;stroke-miterlimit: 10.000000;fill: none;"></path>
  <path d="M140.476624 160.444870L1.000000 160.444870" style="stroke:rgb(100.000000%,60.000610%,78.431702%); stroke-width: 0.199997;stroke-linecap: round;stroke-linejoin: round;stroke-miterlimit: 10.000000;fill: none;"></path>
  <path d="M140.476624 153.471039L1.000000 153.471039" style="stroke:rgb(100.000000%,60.000610%,78.431702%); stroke-width: 0.199997;stroke-linecap: round;stroke-linejoin: round;stroke-miterlimit: 10.000000;fill: none;"></path>
  <path d="M140.476624 146.497208L1.000000 146.497208" style="stroke:rgb(100.000000%,60.000610%,78.431702%); stroke-width: 0.199997;stroke-linecap: round;stroke-linejoin: round;stroke-miterlimit: 10.000000;fill: none;"></path>
  <path d="M140.476624 139.523376L1.000000 139.523376" style="stroke:rgb(100.000000%,60.000610%,78.431702%); stroke-width: 0.199997;stroke-linecap: round;stroke-linejoin: round;stroke-miterlimit: 10.000000;fill: none;"></path>
  <path d="M140.476624 132.549545L1.000000 132.549545" style="stroke:rgb(100.000000%,60.000610%,78.431702%); stroke-width: 0.199997;stroke-linecap: round;stroke-linejoin: round;stroke-miterlimit: 10.000000;fill: none;"></path>
  <path d="M140.476624 125.575714L1.000000 125.575714" style="stroke:rgb(100.000000%,60.000610%,78.431702%); stroke-width: 0.199997;stroke-linecap: round;stroke-linejoin: round;stroke-miterlimit: 10.000000;fill: none;"></path>
  <path d="M140.476624 118.601883L1.000000 118.601883" style="stroke:rgb(100.000000%,60.000610%,78.431702%); stroke-width: 0.199997;stroke-linecap: round;stroke-linejoin: round;stroke-miterlimit: 10.000000;fill: none;"></path>
  <path d="M140.476624 111.628052L1.000000 111.628052" style="stroke:rgb(100.000000%,60.000610%,78.431702%); stroke-width: 0.199997;stroke-linecap: round;stroke-linejoin: round;stroke-miterlimit: 10.000000;fill: none;"></path>
  <path d="M140.476624 104.654221L1.000000 104.654221" style="stroke:rgb(100.000000%,60.000610%,78.431702%); stroke-width: 0.199997;stroke-linecap: round;stroke-linejoin: round;stroke-miterlimit: 10.000000;fill: none;"></path>
  <path d="M140.476624 97.680389L1.000000 97.680389" style="stroke:rgb(100.000000%,60.000610%,78.431702%); stroke-width: 0.199997;stroke-linecap: round;stroke-linejoin: round;stroke-miterlimit: 10.000000;fill: none;"></path>
  <path d="M140.476624 90.706558L1.000000 90.706558" style="stroke:rgb(100.000000%,60.000610%,78.431702%); stroke-width: 0.199997;stroke-linecap: round;stroke-linejoin: round;stroke-miterlimit: 10.000000;fill: none;"></path>
  <path d="M140.476624 83.732727L1.000000 83.732727" style="stroke:rgb(100.000000%,60.000610%,78.431702%); stroke-width: 0.199997;stroke-linecap: round;stroke-linejoin: round;stroke-miterlimit: 10.000000;fill: none;"></path>
  <path d="M140.476624 76.758896L1.000000 76.758896" style="stroke:rgb(100.000000%,60.000610%,78.431702%); stroke-width: 0.199997;stroke-linecap: round;stroke-linejoin: round;stroke-miterlimit: 10.000000;fill: none;"></path>
  <path d="M140.476624 69.785065L1.000000 69.785065" style="stroke:rgb(100.000000%,60.000610%,78.431702%); stroke-width: 0.199997;stroke-linecap: round;stroke-linejoin: round;stroke-miterlimit: 10.000000;fill: none;"></path>
  <path d="M140.476624 62.811234L1.000000 62.811234" style="stroke:rgb(100.000000%,60.000610%,78.431702%); stroke-width: 0.199997;stroke-linecap: round;stroke-linejoin: round;stroke-miterlimit: 10.000000;fill: none;"></path>
  <path d="M140.476624 55.837402L1.000000 55.837402" style="stroke:rgb(100.000000%,60.000610%,78.431702%); stroke-width: 0.199997;stroke-linecap: round;stroke-linejoin: round;stroke-miterlimit: 10.000000;fill: none;"></path>
  <path d="M140.476624 48.863571L1.000000 48.863571" style="stroke:rgb(100.000000%,60.000610%,78.431702%); stroke-width: 0.199997;stroke-linecap: round;stroke-linejoin: round;stroke-miterlimit: 10.000000;fill: none;"></path>
  <path d="M140.476624 41.889740L1.000000 41.889740" style="stroke:rgb(100.000000%,60.000610%,78.431702%); stroke-width: 0.199997;stroke-linecap: round;stroke-linejoin: round;stroke-miterlimit: 10.000000;fill: none;"></path>
  <path d="M140.476624 34.915909L1.000000 34.915909" style="stroke:rgb(100.000000%,60.000610%,78.431702%); stroke-width: 0.199997;stroke-linecap: round;stroke-linejoin: round;stroke-miterlimit: 10.000000;fill: none;"></path>
  <path d="M140.476624 27.942078L1.000000 27.942078" style="stroke:rgb(100.000000%,60.000610%,78.431702%); stroke-width: 0.199997;stroke-linecap: round;stroke-linejoin: round;stroke-miterlimit: 10.000000;fill: none;"></path>
  <path d="M140.476624 20.968246L1.000000 20.968246" style="stroke:rgb(100.000000%,60.000610%,78.431702%); stroke-width: 0.199997;stroke-linecap: round;stroke-linejoin: round;stroke-miterlimit: 10.000000;fill: none;"></path>
  <path d="M140.476624 13.994415L1.000000 13.994415" style="stroke:rgb(100.000000%,60.000610%,78.431702%); stroke-width: 0.199997;stroke-linecap: round;stroke-linejoin: round;stroke-miterlimit: 10.000000;fill: none;"></path>
  <path d="M140.476624 7.020584L1.000000 7.020584" style="stroke:rgb(100.000000%,60.000610%,78.431702%); stroke-width: 0.199997;stroke-linecap: round;stroke-linejoin: round;stroke-miterlimit: 10.000000;fill: none;"></path>
  <path d="M140.476624 0.046753L1.000000 0.046753" style="stroke:rgb(100.000000%,60.000610%,78.431702%); stroke-width: 0.199997;stroke-linecap: round;stroke-linejoin: round;stroke-miterlimit: 10.000000;fill: none;"></path>
  <g transform="matrix(0.707107,-0.707107,0.707107,0.707107,0.000000,0.000000)">
    <path d="M-4.257196 54.983843L-38.775899 59.915086" style="stroke:rgb(100.000000%,60.000610%,78.431702%); stroke-width: 6.973832;stroke-linecap: round;stroke-linejoin: round;stroke-miterlimit: 10.000000;fill: none;"></path>
  </g>
  <g transform="matrix(0.707107,-0.707107,0.707107,0.707107,0.000000,0.000000)">
    <path d="M-4.257196 54.983843L-88.088332 128.952492" style="stroke:rgb(0.000000%,0.000000%,0.000000%); stroke-width: 6.973832;stroke-linecap: round;stroke-linejoin: round;stroke-miterlimit: 10.000000;fill: none;"></path>
  </g>
  <g transform="matrix(0.707107,-0.707107,0.707107,0.707107,0.000000,0.000000)">
    <path d="M-38.775899 59.915086C-14.073492 63.370000,7.708949 77.891627,20.399021 99.365032C23.092524 103.922826,25.350365 108.858601,25.330264 114.158762C25.301337 121.783930,20.746079 128.356864,15.467777 133.883736C-3.588522 153.837448,-31.283606 163.069143,-58.500872 158.539952" style="stroke:rgb(0.000000%,50.196838%,50.196838%); stroke-width: 6.973832;stroke-linecap: round;stroke-linejoin: round;stroke-miterlimit: 10.000000;fill: none;"></path>
  </g>
  <g transform="matrix(0.500000,-0.000000,-0.000000,0.500000,37.969147 39.789749)" style="fill: rgb(0.000000%,0.000000%,0.000000%);">
    <text font-size="9.962646">1</text>
  </g>
  <path d="M35.869156 41.889740l0 0" style="stroke:rgb(0.000000%,0.000000%,0.000000%); stroke-width: 3.000000;stroke-linecap: round;stroke-linejoin: round;stroke-miterlimit: 10.000000;fill: none;"></path>
  <g transform="matrix(0.500000,-0.000000,-0.000000,0.500000,30.995316 151.371048)" style="fill: rgb(0.000000%,0.000000%,0.000000%);">
    <text font-size="9.962646">2</text>
  </g>
  <path d="M28.895325 153.471039l0 0" style="stroke:rgb(0.000000%,0.000000%,0.000000%); stroke-width: 3.000000;stroke-linecap: round;stroke-linejoin: round;stroke-miterlimit: 10.000000;fill: none;"></path>
  <g transform="matrix(0.500000,-0.000000,-0.000000,0.500000,17.047653 67.685074)" style="fill: rgb(0.000000%,0.000000%,0.000000%);">
    <text font-size="9.962646">3</text>
  </g>
  <path d="M14.947662 69.785065l0 0" style="stroke:rgb(0.000000%,0.000000%,0.000000%); stroke-width: 3.000000;stroke-linecap: round;stroke-linejoin: round;stroke-miterlimit: 10.000000;fill: none;"></path>
  <g transform="matrix(0.500000,-0.000000,-0.000000,0.500000,1.000000 279.000000)" style="fill: rgb(0.000000%,0.000000%,0.000000%);">
    <text font-size="9.962646">4</text>
  </g>
  <path d="M1.000000 279.000000l0 0" style="stroke:rgb(0.000000%,0.000000%,0.000000%); stroke-width: 3.000000;stroke-linecap: round;stroke-linejoin: round;stroke-miterlimit: 10.000000;fill: none;"></path>
  <g transform="matrix(0.500000,-0.000000,-0.000000,0.500000,1.000000 279.000000)" style="fill: rgb(0.000000%,0.000000%,0.000000%);">
    <text font-size="9.962646">5</text>
  </g>
  <path d="M1.000000 279.000000l0 0" style="stroke:rgb(0.000000%,0.000000%,0.000000%); stroke-width: 3.000000;stroke-linecap: round;stroke-linejoin: round;stroke-miterlimit: 10.000000;fill: none;"></path>
  <g transform="matrix(0.500000,-0.000000,-0.000000,0.500000,86.785965 53.737411)" style="fill: rgb(0.000000%,0.000000%,0.000000%);">
    <text font-size="9.962646">6</text>
  </g>
  <path d="M84.685974 55.837402l0 0" style="stroke:rgb(0.000000%,0.000000%,0.000000%); stroke-width: 3.000000;stroke-linecap: round;stroke-linejoin: round;stroke-miterlimit: 10.000000;fill: none;"></path>
  <g transform="matrix(0.500000,-0.000000,-0.000000,0.500000,100.733627 60.711243)" style="fill: rgb(0.000000%,0.000000%,0.000000%);">
    <text font-size="9.962646">7</text>
  </g>
  <path d="M98.633636 62.811234l0 0" style="stroke:rgb(0.000000%,0.000000%,0.000000%); stroke-width: 3.000000;stroke-linecap: round;stroke-linejoin: round;stroke-miterlimit: 10.000000;fill: none;"></path>
  <g transform="matrix(0.500000,-0.000000,-0.000000,0.500000,107.707458 81.632736)" style="fill: rgb(0.000000%,0.000000%,0.000000%);">
    <text font-size="9.962646">8</text>
  </g>
  <path d="M105.607468 83.732727l0 0" style="stroke:rgb(0.000000%,0.000000%,0.000000%); stroke-width: 3.000000;stroke-linecap: round;stroke-linejoin: round;stroke-miterlimit: 10.000000;fill: none;"></path>
  <g transform="matrix(0.500000,-0.000000,-0.000000,0.500000,72.838303 151.371048)" style="fill: rgb(0.000000%,0.000000%,0.000000%);">
    <text font-size="9.962646">9</text>
  </g>
  <path d="M70.738312 153.471039l0 0" style="stroke:rgb(0.000000%,0.000000%,0.000000%); stroke-width: 3.000000;stroke-linecap: round;stroke-linejoin: round;stroke-miterlimit: 10.000000;fill: none;"></path>
</svg>
