<?xml version="1.0"?>
<<<<<<< HEAD
<!-- Created by MetaPost 1.999 on 2019.03.27:1923 -->
=======
<!-- Created by MetaPost 1.999 on 2019.03.27:1644 -->
>>>>>>> f06d72b4dd8609592126c9f165cf77a7362ce9ba
<svg version="1.1" xmlns="http://www.w3.org/2000/svg" xmlns:xlink="http://www.w3.org/1999/xlink" width="97.833649" height="305.284927" viewBox="0 0 97.833649 305.284927">
<!-- Original BoundingBox: -0.100006 -0.100006 97.733643 305.184921 -->
  <path d="M0.000000 305.000000L97.633636 305.000000L97.633636 26.046753L0.000000 26.046753Z" style="stroke:rgb(100.000000%,0.000000%,0.000000%); stroke-width: 0.000000;stroke-linecap: round;stroke-linejoin: round;stroke-miterlimit: 10.000000;fill: none;"></path>
  <path d="M0.000000 26.046753L0.000000 305.000000" style="stroke:rgb(100.000000%,60.000610%,78.431702%); stroke-width: 0.199997;stroke-linecap: round;stroke-linejoin: round;stroke-miterlimit: 10.000000;fill: none;"></path>
  <path d="M6.973831 26.046753L6.973831 305.000000" style="stroke:rgb(100.000000%,60.000610%,78.431702%); stroke-width: 0.199997;stroke-linecap: round;stroke-linejoin: round;stroke-miterlimit: 10.000000;fill: none;"></path>
  <path d="M13.947662 26.046753L13.947662 305.000000" style="stroke:rgb(100.000000%,60.000610%,78.431702%); stroke-width: 0.199997;stroke-linecap: round;stroke-linejoin: round;stroke-miterlimit: 10.000000;fill: none;"></path>
  <path d="M20.921494 26.046753L20.921494 305.000000" style="stroke:rgb(100.000000%,60.000610%,78.431702%); stroke-width: 0.199997;stroke-linecap: round;stroke-linejoin: round;stroke-miterlimit: 10.000000;fill: none;"></path>
  <path d="M27.895325 26.046753L27.895325 305.000000" style="stroke:rgb(100.000000%,60.000610%,78.431702%); stroke-width: 0.199997;stroke-linecap: round;stroke-linejoin: round;stroke-miterlimit: 10.000000;fill: none;"></path>
  <path d="M34.869156 26.046753L34.869156 305.000000" style="stroke:rgb(100.000000%,60.000610%,78.431702%); stroke-width: 0.199997;stroke-linecap: round;stroke-linejoin: round;stroke-miterlimit: 10.000000;fill: none;"></path>
  <path d="M41.842987 26.046753L41.842987 305.000000" style="stroke:rgb(100.000000%,60.000610%,78.431702%); stroke-width: 0.199997;stroke-linecap: round;stroke-linejoin: round;stroke-miterlimit: 10.000000;fill: none;"></path>
  <path d="M48.816818 26.046753L48.816818 305.000000" style="stroke:rgb(100.000000%,60.000610%,78.431702%); stroke-width: 0.199997;stroke-linecap: round;stroke-linejoin: round;stroke-miterlimit: 10.000000;fill: none;"></path>
  <path d="M55.790649 26.046753L55.790649 305.000000" style="stroke:rgb(100.000000%,60.000610%,78.431702%); stroke-width: 0.199997;stroke-linecap: round;stroke-linejoin: round;stroke-miterlimit: 10.000000;fill: none;"></path>
  <path d="M62.764481 26.046753L62.764481 305.000000" style="stroke:rgb(100.000000%,60.000610%,78.431702%); stroke-width: 0.199997;stroke-linecap: round;stroke-linejoin: round;stroke-miterlimit: 10.000000;fill: none;"></path>
  <path d="M69.738312 26.046753L69.738312 305.000000" style="stroke:rgb(100.000000%,60.000610%,78.431702%); stroke-width: 0.199997;stroke-linecap: round;stroke-linejoin: round;stroke-miterlimit: 10.000000;fill: none;"></path>
  <path d="M76.712143 26.046753L76.712143 305.000000" style="stroke:rgb(100.000000%,60.000610%,78.431702%); stroke-width: 0.199997;stroke-linecap: round;stroke-linejoin: round;stroke-miterlimit: 10.000000;fill: none;"></path>
  <path d="M83.685974 26.046753L83.685974 305.000000" style="stroke:rgb(100.000000%,60.000610%,78.431702%); stroke-width: 0.199997;stroke-linecap: round;stroke-linejoin: round;stroke-miterlimit: 10.000000;fill: none;"></path>
  <path d="M90.659805 26.046753L90.659805 305.000000" style="stroke:rgb(100.000000%,60.000610%,78.431702%); stroke-width: 0.199997;stroke-linecap: round;stroke-linejoin: round;stroke-miterlimit: 10.000000;fill: none;"></path>
  <path d="M97.633636 26.046753L97.633636 305.000000" style="stroke:rgb(100.000000%,60.000610%,78.431702%); stroke-width: 0.199997;stroke-linecap: round;stroke-linejoin: round;stroke-miterlimit: 10.000000;fill: none;"></path>
  <path d="M97.633636 305.000000L0.000000 305.000000" style="stroke:rgb(100.000000%,60.000610%,78.431702%); stroke-width: 0.199997;stroke-linecap: round;stroke-linejoin: round;stroke-miterlimit: 10.000000;fill: none;"></path>
  <path d="M97.633636 298.026169L0.000000 298.026169" style="stroke:rgb(100.000000%,60.000610%,78.431702%); stroke-width: 0.199997;stroke-linecap: round;stroke-linejoin: round;stroke-miterlimit: 10.000000;fill: none;"></path>
  <path d="M97.633636 291.052338L0.000000 291.052338" style="stroke:rgb(100.000000%,60.000610%,78.431702%); stroke-width: 0.199997;stroke-linecap: round;stroke-linejoin: round;stroke-miterlimit: 10.000000;fill: none;"></path>
  <path d="M97.633636 284.078506L0.000000 284.078506" style="stroke:rgb(100.000000%,60.000610%,78.431702%); stroke-width: 0.199997;stroke-linecap: round;stroke-linejoin: round;stroke-miterlimit: 10.000000;fill: none;"></path>
  <path d="M97.633636 277.104675L0.000000 277.104675" style="stroke:rgb(100.000000%,60.000610%,78.431702%); stroke-width: 0.199997;stroke-linecap: round;stroke-linejoin: round;stroke-miterlimit: 10.000000;fill: none;"></path>
  <path d="M97.633636 270.130844L0.000000 270.130844" style="stroke:rgb(100.000000%,60.000610%,78.431702%); stroke-width: 0.199997;stroke-linecap: round;stroke-linejoin: round;stroke-miterlimit: 10.000000;fill: none;"></path>
  <path d="M97.633636 263.157013L0.000000 263.157013" style="stroke:rgb(100.000000%,60.000610%,78.431702%); stroke-width: 0.199997;stroke-linecap: round;stroke-linejoin: round;stroke-miterlimit: 10.000000;fill: none;"></path>
  <path d="M97.633636 256.183182L0.000000 256.183182" style="stroke:rgb(100.000000%,60.000610%,78.431702%); stroke-width: 0.199997;stroke-linecap: round;stroke-linejoin: round;stroke-miterlimit: 10.000000;fill: none;"></path>
  <path d="M97.633636 249.209351L0.000000 249.209351" style="stroke:rgb(100.000000%,60.000610%,78.431702%); stroke-width: 0.199997;stroke-linecap: round;stroke-linejoin: round;stroke-miterlimit: 10.000000;fill: none;"></path>
  <path d="M97.633636 242.235519L0.000000 242.235519" style="stroke:rgb(100.000000%,60.000610%,78.431702%); stroke-width: 0.199997;stroke-linecap: round;stroke-linejoin: round;stroke-miterlimit: 10.000000;fill: none;"></path>
  <path d="M97.633636 235.261688L0.000000 235.261688" style="stroke:rgb(100.000000%,60.000610%,78.431702%); stroke-width: 0.199997;stroke-linecap: round;stroke-linejoin: round;stroke-miterlimit: 10.000000;fill: none;"></path>
  <path d="M97.633636 228.287857L0.000000 228.287857" style="stroke:rgb(100.000000%,60.000610%,78.431702%); stroke-width: 0.199997;stroke-linecap: round;stroke-linejoin: round;stroke-miterlimit: 10.000000;fill: none;"></path>
  <path d="M97.633636 221.314026L0.000000 221.314026" style="stroke:rgb(100.000000%,60.000610%,78.431702%); stroke-width: 0.199997;stroke-linecap: round;stroke-linejoin: round;stroke-miterlimit: 10.000000;fill: none;"></path>
  <path d="M97.633636 214.340195L0.000000 214.340195" style="stroke:rgb(100.000000%,60.000610%,78.431702%); stroke-width: 0.199997;stroke-linecap: round;stroke-linejoin: round;stroke-miterlimit: 10.000000;fill: none;"></path>
  <path d="M97.633636 207.366364L0.000000 207.366364" style="stroke:rgb(100.000000%,60.000610%,78.431702%); stroke-width: 0.199997;stroke-linecap: round;stroke-linejoin: round;stroke-miterlimit: 10.000000;fill: none;"></path>
  <path d="M97.633636 200.392532L0.000000 200.392532" style="stroke:rgb(100.000000%,60.000610%,78.431702%); stroke-width: 0.199997;stroke-linecap: round;stroke-linejoin: round;stroke-miterlimit: 10.000000;fill: none;"></path>
  <path d="M97.633636 193.418701L0.000000 193.418701" style="stroke:rgb(100.000000%,60.000610%,78.431702%); stroke-width: 0.199997;stroke-linecap: round;stroke-linejoin: round;stroke-miterlimit: 10.000000;fill: none;"></path>
  <path d="M97.633636 186.444870L0.000000 186.444870" style="stroke:rgb(100.000000%,60.000610%,78.431702%); stroke-width: 0.199997;stroke-linecap: round;stroke-linejoin: round;stroke-miterlimit: 10.000000;fill: none;"></path>
  <path d="M97.633636 179.471039L0.000000 179.471039" style="stroke:rgb(100.000000%,60.000610%,78.431702%); stroke-width: 0.199997;stroke-linecap: round;stroke-linejoin: round;stroke-miterlimit: 10.000000;fill: none;"></path>
  <path d="M97.633636 172.497208L0.000000 172.497208" style="stroke:rgb(100.000000%,60.000610%,78.431702%); stroke-width: 0.199997;stroke-linecap: round;stroke-linejoin: round;stroke-miterlimit: 10.000000;fill: none;"></path>
  <path d="M97.633636 165.523376L0.000000 165.523376" style="stroke:rgb(100.000000%,60.000610%,78.431702%); stroke-width: 0.199997;stroke-linecap: round;stroke-linejoin: round;stroke-miterlimit: 10.000000;fill: none;"></path>
  <path d="M97.633636 158.549545L0.000000 158.549545" style="stroke:rgb(100.000000%,60.000610%,78.431702%); stroke-width: 0.199997;stroke-linecap: round;stroke-linejoin: round;stroke-miterlimit: 10.000000;fill: none;"></path>
  <path d="M97.633636 151.575714L0.000000 151.575714" style="stroke:rgb(100.000000%,60.000610%,78.431702%); stroke-width: 0.199997;stroke-linecap: round;stroke-linejoin: round;stroke-miterlimit: 10.000000;fill: none;"></path>
  <path d="M97.633636 144.601883L0.000000 144.601883" style="stroke:rgb(100.000000%,60.000610%,78.431702%); stroke-width: 0.199997;stroke-linecap: round;stroke-linejoin: round;stroke-miterlimit: 10.000000;fill: none;"></path>
  <path d="M97.633636 137.628052L0.000000 137.628052" style="stroke:rgb(100.000000%,60.000610%,78.431702%); stroke-width: 0.199997;stroke-linecap: round;stroke-linejoin: round;stroke-miterlimit: 10.000000;fill: none;"></path>
  <path d="M97.633636 130.654221L0.000000 130.654221" style="stroke:rgb(100.000000%,60.000610%,78.431702%); stroke-width: 0.199997;stroke-linecap: round;stroke-linejoin: round;stroke-miterlimit: 10.000000;fill: none;"></path>
  <path d="M97.633636 123.680389L0.000000 123.680389" style="stroke:rgb(100.000000%,60.000610%,78.431702%); stroke-width: 0.199997;stroke-linecap: round;stroke-linejoin: round;stroke-miterlimit: 10.000000;fill: none;"></path>
  <path d="M97.633636 116.706558L0.000000 116.706558" style="stroke:rgb(100.000000%,60.000610%,78.431702%); stroke-width: 0.199997;stroke-linecap: round;stroke-linejoin: round;stroke-miterlimit: 10.000000;fill: none;"></path>
  <path d="M97.633636 109.732727L0.000000 109.732727" style="stroke:rgb(100.000000%,60.000610%,78.431702%); stroke-width: 0.199997;stroke-linecap: round;stroke-linejoin: round;stroke-miterlimit: 10.000000;fill: none;"></path>
  <path d="M97.633636 102.758896L0.000000 102.758896" style="stroke:rgb(100.000000%,60.000610%,78.431702%); stroke-width: 0.199997;stroke-linecap: round;stroke-linejoin: round;stroke-miterlimit: 10.000000;fill: none;"></path>
  <path d="M97.633636 95.785065L0.000000 95.785065" style="stroke:rgb(100.000000%,60.000610%,78.431702%); stroke-width: 0.199997;stroke-linecap: round;stroke-linejoin: round;stroke-miterlimit: 10.000000;fill: none;"></path>
  <path d="M97.633636 88.811234L0.000000 88.811234" style="stroke:rgb(100.000000%,60.000610%,78.431702%); stroke-width: 0.199997;stroke-linecap: round;stroke-linejoin: round;stroke-miterlimit: 10.000000;fill: none;"></path>
  <path d="M97.633636 81.837402L0.000000 81.837402" style="stroke:rgb(100.000000%,60.000610%,78.431702%); stroke-width: 0.199997;stroke-linecap: round;stroke-linejoin: round;stroke-miterlimit: 10.000000;fill: none;"></path>
  <path d="M97.633636 74.863571L0.000000 74.863571" style="stroke:rgb(100.000000%,60.000610%,78.431702%); stroke-width: 0.199997;stroke-linecap: round;stroke-linejoin: round;stroke-miterlimit: 10.000000;fill: none;"></path>
  <path d="M97.633636 67.889740L0.000000 67.889740" style="stroke:rgb(100.000000%,60.000610%,78.431702%); stroke-width: 0.199997;stroke-linecap: round;stroke-linejoin: round;stroke-miterlimit: 10.000000;fill: none;"></path>
  <path d="M97.633636 60.915909L0.000000 60.915909" style="stroke:rgb(100.000000%,60.000610%,78.431702%); stroke-width: 0.199997;stroke-linecap: round;stroke-linejoin: round;stroke-miterlimit: 10.000000;fill: none;"></path>
  <path d="M97.633636 53.942078L0.000000 53.942078" style="stroke:rgb(100.000000%,60.000610%,78.431702%); stroke-width: 0.199997;stroke-linecap: round;stroke-linejoin: round;stroke-miterlimit: 10.000000;fill: none;"></path>
  <path d="M97.633636 46.968246L0.000000 46.968246" style="stroke:rgb(100.000000%,60.000610%,78.431702%); stroke-width: 0.199997;stroke-linecap: round;stroke-linejoin: round;stroke-miterlimit: 10.000000;fill: none;"></path>
  <path d="M97.633636 39.994415L0.000000 39.994415" style="stroke:rgb(100.000000%,60.000610%,78.431702%); stroke-width: 0.199997;stroke-linecap: round;stroke-linejoin: round;stroke-miterlimit: 10.000000;fill: none;"></path>
  <path d="M97.633636 33.020584L0.000000 33.020584" style="stroke:rgb(100.000000%,60.000610%,78.431702%); stroke-width: 0.199997;stroke-linecap: round;stroke-linejoin: round;stroke-miterlimit: 10.000000;fill: none;"></path>
  <path d="M97.633636 26.046753L0.000000 26.046753" style="stroke:rgb(100.000000%,60.000610%,78.431702%); stroke-width: 0.199997;stroke-linecap: round;stroke-linejoin: round;stroke-miterlimit: 10.000000;fill: none;"></path>
  <g transform="matrix(0.707107,-0.707107,0.707107,0.707107,0.000000,0.000000)">
    <path d="M21.032111 28.280322L25.963354 43.074052L25.963354 52.936539L21.032111 67.730269L11.169624 77.592755L-3.624106 82.523999L-13.486592 82.523999L-28.280322 87.455242L-38.142809 97.317729L-38.142809 117.042702" style="stroke:rgb(0.000000%,0.000000%,0.000000%); stroke-width: 6.973832;stroke-linecap: round;stroke-linejoin: round;stroke-miterlimit: 10.000000;fill: none;"></path>
  </g>
  <g transform="matrix(0.707107,-0.707107,0.707107,0.707107,0.000000,0.000000)">
    <path d="M-38.142809 117.042702L-33.211566 131.836432L-48.005296 126.905189" style="stroke:rgb(0.000000%,0.000000%,0.000000%); stroke-width: 6.973832;stroke-linecap: round;stroke-linejoin: round;stroke-miterlimit: 10.000000;fill: none;"></path>
  </g>
  <g transform="matrix(0.707107,-0.707107,0.707107,0.707107,0.000000,0.000000)">
    <path d="M-48.005296 126.905189L-67.730269 126.905189L-77.592755 136.767675L-82.523999 151.561405L-82.523999 161.423892L-87.455242 176.217622L-97.317729 186.080108L-112.111459 191.011352L-121.973945 191.011352L-136.767675 186.080108" style="stroke:rgb(0.000000%,0.000000%,0.000000%); stroke-width: 6.973832;stroke-linecap: round;stroke-linejoin: round;stroke-miterlimit: 10.000000;fill: none;"></path>
  </g>
  <g transform="matrix(0.500000,-0.000000,-0.000000,0.500000,36.969147 3.025269)" style="fill: rgb(0.000000%,0.000000%,0.000000%);">
    <text font-size="9.962646">1</text>
  </g>
  <path d="M34.869156 5.125259l0 0" style="stroke:rgb(0.000000%,0.000000%,0.000000%); stroke-width: 3.000000;stroke-linecap: round;stroke-linejoin: round;stroke-miterlimit: 10.000000;fill: none;"></path>
  <g transform="matrix(0.500000,-0.000000,-0.000000,0.500000,50.916809 9.999100)" style="fill: rgb(0.000000%,0.000000%,0.000000%);">
    <text font-size="9.962646">2</text>
  </g>
  <path d="M48.816818 12.099091l0 0" style="stroke:rgb(0.000000%,0.000000%,0.000000%); stroke-width: 3.000000;stroke-linecap: round;stroke-linejoin: round;stroke-miterlimit: 10.000000;fill: none;"></path>
  <g transform="matrix(0.500000,-0.000000,-0.000000,0.500000,57.890640 16.972931)" style="fill: rgb(0.000000%,0.000000%,0.000000%);">
    <text font-size="9.962646">3</text>
  </g>
  <path d="M55.790649 19.072922l0 0" style="stroke:rgb(0.000000%,0.000000%,0.000000%); stroke-width: 3.000000;stroke-linecap: round;stroke-linejoin: round;stroke-miterlimit: 10.000000;fill: none;"></path>
  <g transform="matrix(0.500000,-0.000000,-0.000000,0.500000,64.864471 30.920593)" style="fill: rgb(0.000000%,0.000000%,0.000000%);">
    <text font-size="9.962646">4</text>
  </g>
  <path d="M62.764481 33.020584l0 0" style="stroke:rgb(0.000000%,0.000000%,0.000000%); stroke-width: 3.000000;stroke-linecap: round;stroke-linejoin: round;stroke-miterlimit: 10.000000;fill: none;"></path>
  <g transform="matrix(0.500000,-0.000000,-0.000000,0.500000,64.864471 44.868256)" style="fill: rgb(0.000000%,0.000000%,0.000000%);">
    <text font-size="9.962646">5</text>
  </g>
  <path d="M62.764481 46.968246l0 0" style="stroke:rgb(0.000000%,0.000000%,0.000000%); stroke-width: 3.000000;stroke-linecap: round;stroke-linejoin: round;stroke-miterlimit: 10.000000;fill: none;"></path>
  <g transform="matrix(0.500000,-0.000000,-0.000000,0.500000,57.890640 58.815918)" style="fill: rgb(0.000000%,0.000000%,0.000000%);">
    <text font-size="9.962646">6</text>
  </g>
  <path d="M55.790649 60.915909l0 0" style="stroke:rgb(0.000000%,0.000000%,0.000000%); stroke-width: 3.000000;stroke-linecap: round;stroke-linejoin: round;stroke-miterlimit: 10.000000;fill: none;"></path>
  <g transform="matrix(0.500000,-0.000000,-0.000000,0.500000,50.916809 65.789749)" style="fill: rgb(0.000000%,0.000000%,0.000000%);">
    <text font-size="9.962646">7</text>
  </g>
  <path d="M48.816818 67.889740l0 0" style="stroke:rgb(0.000000%,0.000000%,0.000000%); stroke-width: 3.000000;stroke-linecap: round;stroke-linejoin: round;stroke-miterlimit: 10.000000;fill: none;"></path>
  <g transform="matrix(0.500000,-0.000000,-0.000000,0.500000,43.942978 79.737411)" style="fill: rgb(0.000000%,0.000000%,0.000000%);">
    <text font-size="9.962646">8</text>
  </g>
  <path d="M41.842987 81.837402l0 0" style="stroke:rgb(0.000000%,0.000000%,0.000000%); stroke-width: 3.000000;stroke-linecap: round;stroke-linejoin: round;stroke-miterlimit: 10.000000;fill: none;"></path>
  <g transform="matrix(0.500000,-0.000000,-0.000000,0.500000,43.942978 93.685074)" style="fill: rgb(0.000000%,0.000000%,0.000000%);">
    <text font-size="9.962646">9</text>
  </g>
  <path d="M41.842987 95.785065l0 0" style="stroke:rgb(0.000000%,0.000000%,0.000000%); stroke-width: 3.000000;stroke-linecap: round;stroke-linejoin: round;stroke-miterlimit: 10.000000;fill: none;"></path>
  <g transform="matrix(0.500000,-0.000000,-0.000000,0.500000,57.890640 107.632736)" style="fill: rgb(0.000000%,0.000000%,0.000000%);">
    <text font-size="9.962646">10</text>
  </g>
  <path d="M55.790649 109.732727l0 0" style="stroke:rgb(0.000000%,0.000000%,0.000000%); stroke-width: 3.000000;stroke-linecap: round;stroke-linejoin: round;stroke-miterlimit: 10.000000;fill: none;"></path>
  <g transform="matrix(0.500000,-0.000000,-0.000000,0.500000,57.890640 107.632736)" style="fill: rgb(0.000000%,0.000000%,0.000000%);">
    <text font-size="9.962646">11</text>
  </g>
  <path d="M55.790649 109.732727l0 0" style="stroke:rgb(0.000000%,0.000000%,0.000000%); stroke-width: 3.000000;stroke-linecap: round;stroke-linejoin: round;stroke-miterlimit: 10.000000;fill: none;"></path>
  <g transform="matrix(0.500000,-0.000000,-0.000000,0.500000,71.838303 114.606567)" style="fill: rgb(0.000000%,0.000000%,0.000000%);">
    <text font-size="9.962646">12</text>
  </g>
  <path d="M69.738312 116.706558l0 0" style="stroke:rgb(0.000000%,0.000000%,0.000000%); stroke-width: 3.000000;stroke-linecap: round;stroke-linejoin: round;stroke-miterlimit: 10.000000;fill: none;"></path>
  <g transform="matrix(0.500000,-0.000000,-0.000000,0.500000,57.890640 121.580399)" style="fill: rgb(0.000000%,0.000000%,0.000000%);">
    <text font-size="9.962646">13</text>
  </g>
  <path d="M55.790649 123.680389l0 0" style="stroke:rgb(0.000000%,0.000000%,0.000000%); stroke-width: 3.000000;stroke-linecap: round;stroke-linejoin: round;stroke-miterlimit: 10.000000;fill: none;"></path>
  <g transform="matrix(0.500000,-0.000000,-0.000000,0.500000,57.890640 121.580399)" style="fill: rgb(0.000000%,0.000000%,0.000000%);">
    <text font-size="9.962646">14</text>
  </g>
  <path d="M55.790649 123.680389l0 0" style="stroke:rgb(0.000000%,0.000000%,0.000000%); stroke-width: 3.000000;stroke-linecap: round;stroke-linejoin: round;stroke-miterlimit: 10.000000;fill: none;"></path>
  <g transform="matrix(0.500000,-0.000000,-0.000000,0.500000,43.942978 135.528061)" style="fill: rgb(0.000000%,0.000000%,0.000000%);">
    <text font-size="9.962646">15</text>
  </g>
  <path d="M41.842987 137.628052l0 0" style="stroke:rgb(0.000000%,0.000000%,0.000000%); stroke-width: 3.000000;stroke-linecap: round;stroke-linejoin: round;stroke-miterlimit: 10.000000;fill: none;"></path>
  <g transform="matrix(0.500000,-0.000000,-0.000000,0.500000,43.942978 149.475723)" style="fill: rgb(0.000000%,0.000000%,0.000000%);">
    <text font-size="9.962646">16</text>
  </g>
  <path d="M41.842987 151.575714l0 0" style="stroke:rgb(0.000000%,0.000000%,0.000000%); stroke-width: 3.000000;stroke-linecap: round;stroke-linejoin: round;stroke-miterlimit: 10.000000;fill: none;"></path>
  <g transform="matrix(0.500000,-0.000000,-0.000000,0.500000,50.916809 163.423386)" style="fill: rgb(0.000000%,0.000000%,0.000000%);">
    <text font-size="9.962646">17</text>
  </g>
  <path d="M48.816818 165.523376l0 0" style="stroke:rgb(0.000000%,0.000000%,0.000000%); stroke-width: 3.000000;stroke-linecap: round;stroke-linejoin: round;stroke-miterlimit: 10.000000;fill: none;"></path>
  <g transform="matrix(0.500000,-0.000000,-0.000000,0.500000,57.890640 170.397217)" style="fill: rgb(0.000000%,0.000000%,0.000000%);">
    <text font-size="9.962646">18</text>
  </g>
  <path d="M55.790649 172.497208l0 0" style="stroke:rgb(0.000000%,0.000000%,0.000000%); stroke-width: 3.000000;stroke-linecap: round;stroke-linejoin: round;stroke-miterlimit: 10.000000;fill: none;"></path>
  <g transform="matrix(0.500000,-0.000000,-0.000000,0.500000,64.864471 184.344879)" style="fill: rgb(0.000000%,0.000000%,0.000000%);">
    <text font-size="9.962646">19</text>
  </g>
  <path d="M62.764481 186.444870l0 0" style="stroke:rgb(0.000000%,0.000000%,0.000000%); stroke-width: 3.000000;stroke-linecap: round;stroke-linejoin: round;stroke-miterlimit: 10.000000;fill: none;"></path>
  <g transform="matrix(0.500000,-0.000000,-0.000000,0.500000,64.864471 198.292542)" style="fill: rgb(0.000000%,0.000000%,0.000000%);">
    <text font-size="9.962646">20</text>
  </g>
  <path d="M62.764481 200.392532l0 0" style="stroke:rgb(0.000000%,0.000000%,0.000000%); stroke-width: 3.000000;stroke-linecap: round;stroke-linejoin: round;stroke-miterlimit: 10.000000;fill: none;"></path>
  <g transform="matrix(0.500000,-0.000000,-0.000000,0.500000,57.890640 212.240204)" style="fill: rgb(0.000000%,0.000000%,0.000000%);">
    <text font-size="9.962646">21</text>
  </g>
  <path d="M55.790649 214.340195l0 0" style="stroke:rgb(0.000000%,0.000000%,0.000000%); stroke-width: 3.000000;stroke-linecap: round;stroke-linejoin: round;stroke-miterlimit: 10.000000;fill: none;"></path>
  <g transform="matrix(0.500000,-0.000000,-0.000000,0.500000,50.916809 219.214035)" style="fill: rgb(0.000000%,0.000000%,0.000000%);">
    <text font-size="9.962646">22</text>
  </g>
  <path d="M48.816818 221.314026l0 0" style="stroke:rgb(0.000000%,0.000000%,0.000000%); stroke-width: 3.000000;stroke-linecap: round;stroke-linejoin: round;stroke-miterlimit: 10.000000;fill: none;"></path>
  <g transform="matrix(0.500000,-0.000000,-0.000000,0.500000,36.969147 226.187866)" style="fill: rgb(0.000000%,0.000000%,0.000000%);">
    <text font-size="9.962646">23</text>
  </g>
  <path d="M34.869156 228.287857l0 0" style="stroke:rgb(0.000000%,0.000000%,0.000000%); stroke-width: 3.000000;stroke-linecap: round;stroke-linejoin: round;stroke-miterlimit: 10.000000;fill: none;"></path>
</svg>
