<?xml version="1.0"?>
<!-- Created by MetaPost 2.00 on 2019.03.28:1412 -->
<svg version="1.1" xmlns="http://www.w3.org/2000/svg" xmlns:xlink="http://www.w3.org/1999/xlink" width="139.676636" height="279.153259" viewBox="0 0 139.676636 279.153259">
<!-- Original BoundingBox: -0.100006 -0.100006 139.576630 279.053253 -->
  <path d="M0.000000 279.000000L139.476624 279.000000L139.476624 0.046753L0.000000 0.046753Z" style="stroke:rgb(100.000000%,0.000000%,0.000000%); stroke-width: 0.000000;stroke-linecap: round;stroke-linejoin: round;stroke-miterlimit: 10.000000;fill: none;"></path>
  <path d="M0.000000 0.046753L0.000000 279.000000" style="stroke:rgb(100.000000%,60.000610%,78.431702%); stroke-width: 0.199997;stroke-linecap: round;stroke-linejoin: round;stroke-miterlimit: 10.000000;fill: none;"></path>
  <path d="M6.973831 0.046753L6.973831 279.000000" style="stroke:rgb(100.000000%,60.000610%,78.431702%); stroke-width: 0.199997;stroke-linecap: round;stroke-linejoin: round;stroke-miterlimit: 10.000000;fill: none;"></path>
  <path d="M13.947662 0.046753L13.947662 279.000000" style="stroke:rgb(100.000000%,60.000610%,78.431702%); stroke-width: 0.199997;stroke-linecap: round;stroke-linejoin: round;stroke-miterlimit: 10.000000;fill: none;"></path>
  <path d="M20.921494 0.046753L20.921494 279.000000" style="stroke:rgb(100.000000%,60.000610%,78.431702%); stroke-width: 0.199997;stroke-linecap: round;stroke-linejoin: round;stroke-miterlimit: 10.000000;fill: none;"></path>
  <path d="M27.895325 0.046753L27.895325 279.000000" style="stroke:rgb(100.000000%,60.000610%,78.431702%); stroke-width: 0.199997;stroke-linecap: round;stroke-linejoin: round;stroke-miterlimit: 10.000000;fill: none;"></path>
  <path d="M34.869156 0.046753L34.869156 279.000000" style="stroke:rgb(100.000000%,60.000610%,78.431702%); stroke-width: 0.199997;stroke-linecap: round;stroke-linejoin: round;stroke-miterlimit: 10.000000;fill: none;"></path>
  <path d="M41.842987 0.046753L41.842987 279.000000" style="stroke:rgb(100.000000%,60.000610%,78.431702%); stroke-width: 0.199997;stroke-linecap: round;stroke-linejoin: round;stroke-miterlimit: 10.000000;fill: none;"></path>
  <path d="M48.816818 0.046753L48.816818 279.000000" style="stroke:rgb(100.000000%,60.000610%,78.431702%); stroke-width: 0.199997;stroke-linecap: round;stroke-linejoin: round;stroke-miterlimit: 10.000000;fill: none;"></path>
  <path d="M55.790649 0.046753L55.790649 279.000000" style="stroke:rgb(100.000000%,60.000610%,78.431702%); stroke-width: 0.199997;stroke-linecap: round;stroke-linejoin: round;stroke-miterlimit: 10.000000;fill: none;"></path>
  <path d="M62.764481 0.046753L62.764481 279.000000" style="stroke:rgb(100.000000%,60.000610%,78.431702%); stroke-width: 0.199997;stroke-linecap: round;stroke-linejoin: round;stroke-miterlimit: 10.000000;fill: none;"></path>
  <path d="M69.738312 0.046753L69.738312 279.000000" style="stroke:rgb(100.000000%,60.000610%,78.431702%); stroke-width: 0.199997;stroke-linecap: round;stroke-linejoin: round;stroke-miterlimit: 10.000000;fill: none;"></path>
  <path d="M76.712143 0.046753L76.712143 279.000000" style="stroke:rgb(100.000000%,60.000610%,78.431702%); stroke-width: 0.199997;stroke-linecap: round;stroke-linejoin: round;stroke-miterlimit: 10.000000;fill: none;"></path>
  <path d="M83.685974 0.046753L83.685974 279.000000" style="stroke:rgb(100.000000%,60.000610%,78.431702%); stroke-width: 0.199997;stroke-linecap: round;stroke-linejoin: round;stroke-miterlimit: 10.000000;fill: none;"></path>
  <path d="M90.659805 0.046753L90.659805 279.000000" style="stroke:rgb(100.000000%,60.000610%,78.431702%); stroke-width: 0.199997;stroke-linecap: round;stroke-linejoin: round;stroke-miterlimit: 10.000000;fill: none;"></path>
  <path d="M97.633636 0.046753L97.633636 279.000000" style="stroke:rgb(100.000000%,60.000610%,78.431702%); stroke-width: 0.199997;stroke-linecap: round;stroke-linejoin: round;stroke-miterlimit: 10.000000;fill: none;"></path>
  <path d="M104.607468 0.046753L104.607468 279.000000" style="stroke:rgb(100.000000%,60.000610%,78.431702%); stroke-width: 0.199997;stroke-linecap: round;stroke-linejoin: round;stroke-miterlimit: 10.000000;fill: none;"></path>
  <path d="M111.581299 0.046753L111.581299 279.000000" style="stroke:rgb(100.000000%,60.000610%,78.431702%); stroke-width: 0.199997;stroke-linecap: round;stroke-linejoin: round;stroke-miterlimit: 10.000000;fill: none;"></path>
  <path d="M118.555130 0.046753L118.555130 279.000000" style="stroke:rgb(100.000000%,60.000610%,78.431702%); stroke-width: 0.199997;stroke-linecap: round;stroke-linejoin: round;stroke-miterlimit: 10.000000;fill: none;"></path>
  <path d="M125.528961 0.046753L125.528961 279.000000" style="stroke:rgb(100.000000%,60.000610%,78.431702%); stroke-width: 0.199997;stroke-linecap: round;stroke-linejoin: round;stroke-miterlimit: 10.000000;fill: none;"></path>
  <path d="M132.502792 0.046753L132.502792 279.000000" style="stroke:rgb(100.000000%,60.000610%,78.431702%); stroke-width: 0.199997;stroke-linecap: round;stroke-linejoin: round;stroke-miterlimit: 10.000000;fill: none;"></path>
  <path d="M139.476624 0.046753L139.476624 279.000000" style="stroke:rgb(100.000000%,60.000610%,78.431702%); stroke-width: 0.199997;stroke-linecap: round;stroke-linejoin: round;stroke-miterlimit: 10.000000;fill: none;"></path>
  <path d="M139.476624 279.000000L0.000000 279.000000" style="stroke:rgb(100.000000%,60.000610%,78.431702%); stroke-width: 0.199997;stroke-linecap: round;stroke-linejoin: round;stroke-miterlimit: 10.000000;fill: none;"></path>
  <path d="M139.476624 272.026169L0.000000 272.026169" style="stroke:rgb(100.000000%,60.000610%,78.431702%); stroke-width: 0.199997;stroke-linecap: round;stroke-linejoin: round;stroke-miterlimit: 10.000000;fill: none;"></path>
  <path d="M139.476624 265.052338L0.000000 265.052338" style="stroke:rgb(100.000000%,60.000610%,78.431702%); stroke-width: 0.199997;stroke-linecap: round;stroke-linejoin: round;stroke-miterlimit: 10.000000;fill: none;"></path>
  <path d="M139.476624 258.078506L0.000000 258.078506" style="stroke:rgb(100.000000%,60.000610%,78.431702%); stroke-width: 0.199997;stroke-linecap: round;stroke-linejoin: round;stroke-miterlimit: 10.000000;fill: none;"></path>
  <path d="M139.476624 251.104675L0.000000 251.104675" style="stroke:rgb(100.000000%,60.000610%,78.431702%); stroke-width: 0.199997;stroke-linecap: round;stroke-linejoin: round;stroke-miterlimit: 10.000000;fill: none;"></path>
  <path d="M139.476624 244.130844L0.000000 244.130844" style="stroke:rgb(100.000000%,60.000610%,78.431702%); stroke-width: 0.199997;stroke-linecap: round;stroke-linejoin: round;stroke-miterlimit: 10.000000;fill: none;"></path>
  <path d="M139.476624 237.157013L0.000000 237.157013" style="stroke:rgb(100.000000%,60.000610%,78.431702%); stroke-width: 0.199997;stroke-linecap: round;stroke-linejoin: round;stroke-miterlimit: 10.000000;fill: none;"></path>
  <path d="M139.476624 230.183182L0.000000 230.183182" style="stroke:rgb(100.000000%,60.000610%,78.431702%); stroke-width: 0.199997;stroke-linecap: round;stroke-linejoin: round;stroke-miterlimit: 10.000000;fill: none;"></path>
  <path d="M139.476624 223.209351L0.000000 223.209351" style="stroke:rgb(100.000000%,60.000610%,78.431702%); stroke-width: 0.199997;stroke-linecap: round;stroke-linejoin: round;stroke-miterlimit: 10.000000;fill: none;"></path>
  <path d="M139.476624 216.235519L0.000000 216.235519" style="stroke:rgb(100.000000%,60.000610%,78.431702%); stroke-width: 0.199997;stroke-linecap: round;stroke-linejoin: round;stroke-miterlimit: 10.000000;fill: none;"></path>
  <path d="M139.476624 209.261688L0.000000 209.261688" style="stroke:rgb(100.000000%,60.000610%,78.431702%); stroke-width: 0.199997;stroke-linecap: round;stroke-linejoin: round;stroke-miterlimit: 10.000000;fill: none;"></path>
  <path d="M139.476624 202.287857L0.000000 202.287857" style="stroke:rgb(100.000000%,60.000610%,78.431702%); stroke-width: 0.199997;stroke-linecap: round;stroke-linejoin: round;stroke-miterlimit: 10.000000;fill: none;"></path>
  <path d="M139.476624 195.314026L0.000000 195.314026" style="stroke:rgb(100.000000%,60.000610%,78.431702%); stroke-width: 0.199997;stroke-linecap: round;stroke-linejoin: round;stroke-miterlimit: 10.000000;fill: none;"></path>
  <path d="M139.476624 188.340195L0.000000 188.340195" style="stroke:rgb(100.000000%,60.000610%,78.431702%); stroke-width: 0.199997;stroke-linecap: round;stroke-linejoin: round;stroke-miterlimit: 10.000000;fill: none;"></path>
  <path d="M139.476624 181.366364L0.000000 181.366364" style="stroke:rgb(100.000000%,60.000610%,78.431702%); stroke-width: 0.199997;stroke-linecap: round;stroke-linejoin: round;stroke-miterlimit: 10.000000;fill: none;"></path>
  <path d="M139.476624 174.392532L0.000000 174.392532" style="stroke:rgb(100.000000%,60.000610%,78.431702%); stroke-width: 0.199997;stroke-linecap: round;stroke-linejoin: round;stroke-miterlimit: 10.000000;fill: none;"></path>
  <path d="M139.476624 167.418701L0.000000 167.418701" style="stroke:rgb(100.000000%,60.000610%,78.431702%); stroke-width: 0.199997;stroke-linecap: round;stroke-linejoin: round;stroke-miterlimit: 10.000000;fill: none;"></path>
  <path d="M139.476624 160.444870L0.000000 160.444870" style="stroke:rgb(100.000000%,60.000610%,78.431702%); stroke-width: 0.199997;stroke-linecap: round;stroke-linejoin: round;stroke-miterlimit: 10.000000;fill: none;"></path>
  <path d="M139.476624 153.471039L0.000000 153.471039" style="stroke:rgb(100.000000%,60.000610%,78.431702%); stroke-width: 0.199997;stroke-linecap: round;stroke-linejoin: round;stroke-miterlimit: 10.000000;fill: none;"></path>
  <path d="M139.476624 146.497208L0.000000 146.497208" style="stroke:rgb(100.000000%,60.000610%,78.431702%); stroke-width: 0.199997;stroke-linecap: round;stroke-linejoin: round;stroke-miterlimit: 10.000000;fill: none;"></path>
  <path d="M139.476624 139.523376L0.000000 139.523376" style="stroke:rgb(100.000000%,60.000610%,78.431702%); stroke-width: 0.199997;stroke-linecap: round;stroke-linejoin: round;stroke-miterlimit: 10.000000;fill: none;"></path>
  <path d="M139.476624 132.549545L0.000000 132.549545" style="stroke:rgb(100.000000%,60.000610%,78.431702%); stroke-width: 0.199997;stroke-linecap: round;stroke-linejoin: round;stroke-miterlimit: 10.000000;fill: none;"></path>
  <path d="M139.476624 125.575714L0.000000 125.575714" style="stroke:rgb(100.000000%,60.000610%,78.431702%); stroke-width: 0.199997;stroke-linecap: round;stroke-linejoin: round;stroke-miterlimit: 10.000000;fill: none;"></path>
  <path d="M139.476624 118.601883L0.000000 118.601883" style="stroke:rgb(100.000000%,60.000610%,78.431702%); stroke-width: 0.199997;stroke-linecap: round;stroke-linejoin: round;stroke-miterlimit: 10.000000;fill: none;"></path>
  <path d="M139.476624 111.628052L0.000000 111.628052" style="stroke:rgb(100.000000%,60.000610%,78.431702%); stroke-width: 0.199997;stroke-linecap: round;stroke-linejoin: round;stroke-miterlimit: 10.000000;fill: none;"></path>
  <path d="M139.476624 104.654221L0.000000 104.654221" style="stroke:rgb(100.000000%,60.000610%,78.431702%); stroke-width: 0.199997;stroke-linecap: round;stroke-linejoin: round;stroke-miterlimit: 10.000000;fill: none;"></path>
  <path d="M139.476624 97.680389L0.000000 97.680389" style="stroke:rgb(100.000000%,60.000610%,78.431702%); stroke-width: 0.199997;stroke-linecap: round;stroke-linejoin: round;stroke-miterlimit: 10.000000;fill: none;"></path>
  <path d="M139.476624 90.706558L0.000000 90.706558" style="stroke:rgb(100.000000%,60.000610%,78.431702%); stroke-width: 0.199997;stroke-linecap: round;stroke-linejoin: round;stroke-miterlimit: 10.000000;fill: none;"></path>
  <path d="M139.476624 83.732727L0.000000 83.732727" style="stroke:rgb(100.000000%,60.000610%,78.431702%); stroke-width: 0.199997;stroke-linecap: round;stroke-linejoin: round;stroke-miterlimit: 10.000000;fill: none;"></path>
  <path d="M139.476624 76.758896L0.000000 76.758896" style="stroke:rgb(100.000000%,60.000610%,78.431702%); stroke-width: 0.199997;stroke-linecap: round;stroke-linejoin: round;stroke-miterlimit: 10.000000;fill: none;"></path>
  <path d="M139.476624 69.785065L0.000000 69.785065" style="stroke:rgb(100.000000%,60.000610%,78.431702%); stroke-width: 0.199997;stroke-linecap: round;stroke-linejoin: round;stroke-miterlimit: 10.000000;fill: none;"></path>
  <path d="M139.476624 62.811234L0.000000 62.811234" style="stroke:rgb(100.000000%,60.000610%,78.431702%); stroke-width: 0.199997;stroke-linecap: round;stroke-linejoin: round;stroke-miterlimit: 10.000000;fill: none;"></path>
  <path d="M139.476624 55.837402L0.000000 55.837402" style="stroke:rgb(100.000000%,60.000610%,78.431702%); stroke-width: 0.199997;stroke-linecap: round;stroke-linejoin: round;stroke-miterlimit: 10.000000;fill: none;"></path>
  <path d="M139.476624 48.863571L0.000000 48.863571" style="stroke:rgb(100.000000%,60.000610%,78.431702%); stroke-width: 0.199997;stroke-linecap: round;stroke-linejoin: round;stroke-miterlimit: 10.000000;fill: none;"></path>
  <path d="M139.476624 41.889740L0.000000 41.889740" style="stroke:rgb(100.000000%,60.000610%,78.431702%); stroke-width: 0.199997;stroke-linecap: round;stroke-linejoin: round;stroke-miterlimit: 10.000000;fill: none;"></path>
  <path d="M139.476624 34.915909L0.000000 34.915909" style="stroke:rgb(100.000000%,60.000610%,78.431702%); stroke-width: 0.199997;stroke-linecap: round;stroke-linejoin: round;stroke-miterlimit: 10.000000;fill: none;"></path>
  <path d="M139.476624 27.942078L0.000000 27.942078" style="stroke:rgb(100.000000%,60.000610%,78.431702%); stroke-width: 0.199997;stroke-linecap: round;stroke-linejoin: round;stroke-miterlimit: 10.000000;fill: none;"></path>
  <path d="M139.476624 20.968246L0.000000 20.968246" style="stroke:rgb(100.000000%,60.000610%,78.431702%); stroke-width: 0.199997;stroke-linecap: round;stroke-linejoin: round;stroke-miterlimit: 10.000000;fill: none;"></path>
  <path d="M139.476624 13.994415L0.000000 13.994415" style="stroke:rgb(100.000000%,60.000610%,78.431702%); stroke-width: 0.199997;stroke-linecap: round;stroke-linejoin: round;stroke-miterlimit: 10.000000;fill: none;"></path>
  <path d="M139.476624 7.020584L0.000000 7.020584" style="stroke:rgb(100.000000%,60.000610%,78.431702%); stroke-width: 0.199997;stroke-linecap: round;stroke-linejoin: round;stroke-miterlimit: 10.000000;fill: none;"></path>
  <path d="M139.476624 0.046753L0.000000 0.046753" style="stroke:rgb(100.000000%,60.000610%,78.431702%); stroke-width: 0.199997;stroke-linecap: round;stroke-linejoin: round;stroke-miterlimit: 10.000000;fill: none;"></path>
  <g transform="matrix(0.707107,-0.707107,0.707107,0.707107,0.000000,0.000000)">
    <path d="M59.141860 98.657926L64.073104 83.864196L54.210617 64.139222L44.348131 54.276736L24.623157 44.414249L-0.033059 49.345492L-29.620519 69.070466L-54.276736 93.726682L-69.070466 118.382899L-69.070466 138.107872L-59.207979 157.832845L-54.276736 162.764089L-34.551763 172.626575L-14.826789 172.626575L4.898184 162.764089L9.829427 157.832845L19.691914 138.107872L19.691914 118.382899L9.829427 98.657926L4.898184 93.726682L-14.826789 83.864196L-34.551763 83.864196L-54.276736 93.726682" style="stroke:rgb(0.000000%,0.000000%,0.000000%); stroke-width: 6.973832;stroke-linecap: round;stroke-linejoin: round;stroke-miterlimit: 10.000000;fill: none;"></path>
  </g>
  <g transform="matrix(0.500000,-0.000000,-0.000000,0.500000,113.681290 25.842087)" style="fill: rgb(0.000000%,0.000000%,0.000000%);">
    <text font-size="9.962646">1</text>
  </g>
  <path d="M111.581299 27.942078l0 0" style="stroke:rgb(0.000000%,0.000000%,0.000000%); stroke-width: 3.000000;stroke-linecap: round;stroke-linejoin: round;stroke-miterlimit: 10.000000;fill: none;"></path>
  <g transform="matrix(0.500000,-0.000000,-0.000000,0.500000,106.707458 11.894424)" style="fill: rgb(0.000000%,0.000000%,0.000000%);">
    <text font-size="9.962646">2</text>
  </g>
  <path d="M104.607468 13.994415l0 0" style="stroke:rgb(0.000000%,0.000000%,0.000000%); stroke-width: 3.000000;stroke-linecap: round;stroke-linejoin: round;stroke-miterlimit: 10.000000;fill: none;"></path>
  <g transform="matrix(0.500000,-0.000000,-0.000000,0.500000,85.785965 4.920593)" style="fill: rgb(0.000000%,0.000000%,0.000000%);">
    <text font-size="9.962646">3</text>
  </g>
  <path d="M83.685974 7.020584l0 0" style="stroke:rgb(0.000000%,0.000000%,0.000000%); stroke-width: 3.000000;stroke-linecap: round;stroke-linejoin: round;stroke-miterlimit: 10.000000;fill: none;"></path>
  <g transform="matrix(0.500000,-0.000000,-0.000000,0.500000,71.838303 4.920593)" style="fill: rgb(0.000000%,0.000000%,0.000000%);">
    <text font-size="9.962646">4</text>
  </g>
  <path d="M69.738312 7.020584l0 0" style="stroke:rgb(0.000000%,0.000000%,0.000000%); stroke-width: 3.000000;stroke-linecap: round;stroke-linejoin: round;stroke-miterlimit: 10.000000;fill: none;"></path>
  <g transform="matrix(0.500000,-0.000000,-0.000000,0.500000,50.916809 11.894424)" style="fill: rgb(0.000000%,0.000000%,0.000000%);">
    <text font-size="9.962646">5</text>
  </g>
  <path d="M48.816818 13.994415l0 0" style="stroke:rgb(0.000000%,0.000000%,0.000000%); stroke-width: 3.000000;stroke-linecap: round;stroke-linejoin: round;stroke-miterlimit: 10.000000;fill: none;"></path>
  <g transform="matrix(0.500000,-0.000000,-0.000000,0.500000,36.969147 32.815918)" style="fill: rgb(0.000000%,0.000000%,0.000000%);">
    <text font-size="9.962646">6</text>
  </g>
  <path d="M34.869156 34.915909l0 0" style="stroke:rgb(0.000000%,0.000000%,0.000000%); stroke-width: 3.000000;stroke-linecap: round;stroke-linejoin: round;stroke-miterlimit: 10.000000;fill: none;"></path>
  <g transform="matrix(0.500000,-0.000000,-0.000000,0.500000,29.995316 67.685074)" style="fill: rgb(0.000000%,0.000000%,0.000000%);">
    <text font-size="9.962646">7</text>
  </g>
  <path d="M27.895325 69.785065l0 0" style="stroke:rgb(0.000000%,0.000000%,0.000000%); stroke-width: 3.000000;stroke-linecap: round;stroke-linejoin: round;stroke-miterlimit: 10.000000;fill: none;"></path>
  <g transform="matrix(0.500000,-0.000000,-0.000000,0.500000,29.995316 102.554230)" style="fill: rgb(0.000000%,0.000000%,0.000000%);">
    <text font-size="9.962646">8</text>
  </g>
  <path d="M27.895325 104.654221l0 0" style="stroke:rgb(0.000000%,0.000000%,0.000000%); stroke-width: 3.000000;stroke-linecap: round;stroke-linejoin: round;stroke-miterlimit: 10.000000;fill: none;"></path>
  <g transform="matrix(0.500000,-0.000000,-0.000000,0.500000,36.969147 130.449554)" style="fill: rgb(0.000000%,0.000000%,0.000000%);">
    <text font-size="9.962646">9</text>
  </g>
  <path d="M34.869156 132.549545l0 0" style="stroke:rgb(0.000000%,0.000000%,0.000000%); stroke-width: 3.000000;stroke-linecap: round;stroke-linejoin: round;stroke-miterlimit: 10.000000;fill: none;"></path>
  <g transform="matrix(0.500000,-0.000000,-0.000000,0.500000,50.916809 144.397217)" style="fill: rgb(0.000000%,0.000000%,0.000000%);">
    <text font-size="9.962646">10</text>
  </g>
  <path d="M48.816818 146.497208l0 0" style="stroke:rgb(0.000000%,0.000000%,0.000000%); stroke-width: 3.000000;stroke-linecap: round;stroke-linejoin: round;stroke-miterlimit: 10.000000;fill: none;"></path>
  <g transform="matrix(0.500000,-0.000000,-0.000000,0.500000,71.838303 151.371048)" style="fill: rgb(0.000000%,0.000000%,0.000000%);">
    <text font-size="9.962646">11</text>
  </g>
  <path d="M69.738312 153.471039l0 0" style="stroke:rgb(0.000000%,0.000000%,0.000000%); stroke-width: 3.000000;stroke-linecap: round;stroke-linejoin: round;stroke-miterlimit: 10.000000;fill: none;"></path>
  <g transform="matrix(0.500000,-0.000000,-0.000000,0.500000,78.812134 151.371048)" style="fill: rgb(0.000000%,0.000000%,0.000000%);">
    <text font-size="9.962646">12</text>
  </g>
  <path d="M76.712143 153.471039l0 0" style="stroke:rgb(0.000000%,0.000000%,0.000000%); stroke-width: 3.000000;stroke-linecap: round;stroke-linejoin: round;stroke-miterlimit: 10.000000;fill: none;"></path>
  <g transform="matrix(0.500000,-0.000000,-0.000000,0.500000,99.733627 144.397217)" style="fill: rgb(0.000000%,0.000000%,0.000000%);">
    <text font-size="9.962646">13</text>
  </g>
  <path d="M97.633636 146.497208l0 0" style="stroke:rgb(0.000000%,0.000000%,0.000000%); stroke-width: 3.000000;stroke-linecap: round;stroke-linejoin: round;stroke-miterlimit: 10.000000;fill: none;"></path>
  <g transform="matrix(0.500000,-0.000000,-0.000000,0.500000,113.681290 130.449554)" style="fill: rgb(0.000000%,0.000000%,0.000000%);">
    <text font-size="9.962646">14</text>
  </g>
  <path d="M111.581299 132.549545l0 0" style="stroke:rgb(0.000000%,0.000000%,0.000000%); stroke-width: 3.000000;stroke-linecap: round;stroke-linejoin: round;stroke-miterlimit: 10.000000;fill: none;"></path>
  <g transform="matrix(0.500000,-0.000000,-0.000000,0.500000,120.655121 109.528061)" style="fill: rgb(0.000000%,0.000000%,0.000000%);">
    <text font-size="9.962646">15</text>
  </g>
  <path d="M118.555130 111.628052l0 0" style="stroke:rgb(0.000000%,0.000000%,0.000000%); stroke-width: 3.000000;stroke-linecap: round;stroke-linejoin: round;stroke-miterlimit: 10.000000;fill: none;"></path>
  <g transform="matrix(0.500000,-0.000000,-0.000000,0.500000,120.655121 102.554230)" style="fill: rgb(0.000000%,0.000000%,0.000000%);">
    <text font-size="9.962646">16</text>
  </g>
  <path d="M118.555130 104.654221l0 0" style="stroke:rgb(0.000000%,0.000000%,0.000000%); stroke-width: 3.000000;stroke-linecap: round;stroke-linejoin: round;stroke-miterlimit: 10.000000;fill: none;"></path>
  <g transform="matrix(0.500000,-0.000000,-0.000000,0.500000,113.681290 81.632736)" style="fill: rgb(0.000000%,0.000000%,0.000000%);">
    <text font-size="9.962646">17</text>
  </g>
  <path d="M111.581299 83.732727l0 0" style="stroke:rgb(0.000000%,0.000000%,0.000000%); stroke-width: 3.000000;stroke-linecap: round;stroke-linejoin: round;stroke-miterlimit: 10.000000;fill: none;"></path>
  <g transform="matrix(0.500000,-0.000000,-0.000000,0.500000,99.733627 67.685074)" style="fill: rgb(0.000000%,0.000000%,0.000000%);">
    <text font-size="9.962646">18</text>
  </g>
  <path d="M97.633636 69.785065l0 0" style="stroke:rgb(0.000000%,0.000000%,0.000000%); stroke-width: 3.000000;stroke-linecap: round;stroke-linejoin: round;stroke-miterlimit: 10.000000;fill: none;"></path>
  <g transform="matrix(0.500000,-0.000000,-0.000000,0.500000,78.812134 60.711243)" style="fill: rgb(0.000000%,0.000000%,0.000000%);">
    <text font-size="9.962646">19</text>
  </g>
  <path d="M76.712143 62.811234l0 0" style="stroke:rgb(0.000000%,0.000000%,0.000000%); stroke-width: 3.000000;stroke-linecap: round;stroke-linejoin: round;stroke-miterlimit: 10.000000;fill: none;"></path>
  <g transform="matrix(0.500000,-0.000000,-0.000000,0.500000,71.838303 60.711243)" style="fill: rgb(0.000000%,0.000000%,0.000000%);">
    <text font-size="9.962646">20</text>
  </g>
  <path d="M69.738312 62.811234l0 0" style="stroke:rgb(0.000000%,0.000000%,0.000000%); stroke-width: 3.000000;stroke-linecap: round;stroke-linejoin: round;stroke-miterlimit: 10.000000;fill: none;"></path>
  <g transform="matrix(0.500000,-0.000000,-0.000000,0.500000,50.916809 67.685074)" style="fill: rgb(0.000000%,0.000000%,0.000000%);">
    <text font-size="9.962646">21</text>
  </g>
  <path d="M48.816818 69.785065l0 0" style="stroke:rgb(0.000000%,0.000000%,0.000000%); stroke-width: 3.000000;stroke-linecap: round;stroke-linejoin: round;stroke-miterlimit: 10.000000;fill: none;"></path>
  <g transform="matrix(0.500000,-0.000000,-0.000000,0.500000,36.969147 81.632736)" style="fill: rgb(0.000000%,0.000000%,0.000000%);">
    <text font-size="9.962646">22</text>
  </g>
  <path d="M34.869156 83.732727l0 0" style="stroke:rgb(0.000000%,0.000000%,0.000000%); stroke-width: 3.000000;stroke-linecap: round;stroke-linejoin: round;stroke-miterlimit: 10.000000;fill: none;"></path>
  <g transform="matrix(0.500000,-0.000000,-0.000000,0.500000,29.995316 102.554230)" style="fill: rgb(0.000000%,0.000000%,0.000000%);">
    <text font-size="9.962646">23</text>
  </g>
  <path d="M27.895325 104.654221l0 0" style="stroke:rgb(0.000000%,0.000000%,0.000000%); stroke-width: 3.000000;stroke-linecap: round;stroke-linejoin: round;stroke-miterlimit: 10.000000;fill: none;"></path>
</svg>
