<?xml version="1.0"?>
<!-- Created by MetaPost 2.00 on 2019.03.28:1412 -->
<svg version="1.1" xmlns="http://www.w3.org/2000/svg" xmlns:xlink="http://www.w3.org/1999/xlink" width="153.624298" height="279.153259" viewBox="0 0 153.624298 279.153259">
<!-- Original BoundingBox: -0.100006 -0.100006 153.524292 279.053253 -->
  <path d="M0.000000 279.000000L153.424286 279.000000L153.424286 0.046753L0.000000 0.046753Z" style="stroke:rgb(100.000000%,0.000000%,0.000000%); stroke-width: 0.000000;stroke-linecap: round;stroke-linejoin: round;stroke-miterlimit: 10.000000;fill: none;"></path>
  <path d="M0.000000 0.046753L0.000000 279.000000" style="stroke:rgb(100.000000%,60.000610%,78.431702%); stroke-width: 0.199997;stroke-linecap: round;stroke-linejoin: round;stroke-miterlimit: 10.000000;fill: none;"></path>
  <path d="M6.973831 0.046753L6.973831 279.000000" style="stroke:rgb(100.000000%,60.000610%,78.431702%); stroke-width: 0.199997;stroke-linecap: round;stroke-linejoin: round;stroke-miterlimit: 10.000000;fill: none;"></path>
  <path d="M13.947662 0.046753L13.947662 279.000000" style="stroke:rgb(100.000000%,60.000610%,78.431702%); stroke-width: 0.199997;stroke-linecap: round;stroke-linejoin: round;stroke-miterlimit: 10.000000;fill: none;"></path>
  <path d="M20.921494 0.046753L20.921494 279.000000" style="stroke:rgb(100.000000%,60.000610%,78.431702%); stroke-width: 0.199997;stroke-linecap: round;stroke-linejoin: round;stroke-miterlimit: 10.000000;fill: none;"></path>
  <path d="M27.895325 0.046753L27.895325 279.000000" style="stroke:rgb(100.000000%,60.000610%,78.431702%); stroke-width: 0.199997;stroke-linecap: round;stroke-linejoin: round;stroke-miterlimit: 10.000000;fill: none;"></path>
  <path d="M34.869156 0.046753L34.869156 279.000000" style="stroke:rgb(100.000000%,60.000610%,78.431702%); stroke-width: 0.199997;stroke-linecap: round;stroke-linejoin: round;stroke-miterlimit: 10.000000;fill: none;"></path>
  <path d="M41.842987 0.046753L41.842987 279.000000" style="stroke:rgb(100.000000%,60.000610%,78.431702%); stroke-width: 0.199997;stroke-linecap: round;stroke-linejoin: round;stroke-miterlimit: 10.000000;fill: none;"></path>
  <path d="M48.816818 0.046753L48.816818 279.000000" style="stroke:rgb(100.000000%,60.000610%,78.431702%); stroke-width: 0.199997;stroke-linecap: round;stroke-linejoin: round;stroke-miterlimit: 10.000000;fill: none;"></path>
  <path d="M55.790649 0.046753L55.790649 279.000000" style="stroke:rgb(100.000000%,60.000610%,78.431702%); stroke-width: 0.199997;stroke-linecap: round;stroke-linejoin: round;stroke-miterlimit: 10.000000;fill: none;"></path>
  <path d="M62.764481 0.046753L62.764481 279.000000" style="stroke:rgb(100.000000%,60.000610%,78.431702%); stroke-width: 0.199997;stroke-linecap: round;stroke-linejoin: round;stroke-miterlimit: 10.000000;fill: none;"></path>
  <path d="M69.738312 0.046753L69.738312 279.000000" style="stroke:rgb(100.000000%,60.000610%,78.431702%); stroke-width: 0.199997;stroke-linecap: round;stroke-linejoin: round;stroke-miterlimit: 10.000000;fill: none;"></path>
  <path d="M76.712143 0.046753L76.712143 279.000000" style="stroke:rgb(100.000000%,60.000610%,78.431702%); stroke-width: 0.199997;stroke-linecap: round;stroke-linejoin: round;stroke-miterlimit: 10.000000;fill: none;"></path>
  <path d="M83.685974 0.046753L83.685974 279.000000" style="stroke:rgb(100.000000%,60.000610%,78.431702%); stroke-width: 0.199997;stroke-linecap: round;stroke-linejoin: round;stroke-miterlimit: 10.000000;fill: none;"></path>
  <path d="M90.659805 0.046753L90.659805 279.000000" style="stroke:rgb(100.000000%,60.000610%,78.431702%); stroke-width: 0.199997;stroke-linecap: round;stroke-linejoin: round;stroke-miterlimit: 10.000000;fill: none;"></path>
  <path d="M97.633636 0.046753L97.633636 279.000000" style="stroke:rgb(100.000000%,60.000610%,78.431702%); stroke-width: 0.199997;stroke-linecap: round;stroke-linejoin: round;stroke-miterlimit: 10.000000;fill: none;"></path>
  <path d="M104.607468 0.046753L104.607468 279.000000" style="stroke:rgb(100.000000%,60.000610%,78.431702%); stroke-width: 0.199997;stroke-linecap: round;stroke-linejoin: round;stroke-miterlimit: 10.000000;fill: none;"></path>
  <path d="M111.581299 0.046753L111.581299 279.000000" style="stroke:rgb(100.000000%,60.000610%,78.431702%); stroke-width: 0.199997;stroke-linecap: round;stroke-linejoin: round;stroke-miterlimit: 10.000000;fill: none;"></path>
  <path d="M118.555130 0.046753L118.555130 279.000000" style="stroke:rgb(100.000000%,60.000610%,78.431702%); stroke-width: 0.199997;stroke-linecap: round;stroke-linejoin: round;stroke-miterlimit: 10.000000;fill: none;"></path>
  <path d="M125.528961 0.046753L125.528961 279.000000" style="stroke:rgb(100.000000%,60.000610%,78.431702%); stroke-width: 0.199997;stroke-linecap: round;stroke-linejoin: round;stroke-miterlimit: 10.000000;fill: none;"></path>
  <path d="M132.502792 0.046753L132.502792 279.000000" style="stroke:rgb(100.000000%,60.000610%,78.431702%); stroke-width: 0.199997;stroke-linecap: round;stroke-linejoin: round;stroke-miterlimit: 10.000000;fill: none;"></path>
  <path d="M139.476624 0.046753L139.476624 279.000000" style="stroke:rgb(100.000000%,60.000610%,78.431702%); stroke-width: 0.199997;stroke-linecap: round;stroke-linejoin: round;stroke-miterlimit: 10.000000;fill: none;"></path>
  <path d="M146.450455 0.046753L146.450455 279.000000" style="stroke:rgb(100.000000%,60.000610%,78.431702%); stroke-width: 0.199997;stroke-linecap: round;stroke-linejoin: round;stroke-miterlimit: 10.000000;fill: none;"></path>
  <path d="M153.424286 0.046753L153.424286 279.000000" style="stroke:rgb(100.000000%,60.000610%,78.431702%); stroke-width: 0.199997;stroke-linecap: round;stroke-linejoin: round;stroke-miterlimit: 10.000000;fill: none;"></path>
  <path d="M153.424286 279.000000L0.000000 279.000000" style="stroke:rgb(100.000000%,60.000610%,78.431702%); stroke-width: 0.199997;stroke-linecap: round;stroke-linejoin: round;stroke-miterlimit: 10.000000;fill: none;"></path>
  <path d="M153.424286 272.026169L0.000000 272.026169" style="stroke:rgb(100.000000%,60.000610%,78.431702%); stroke-width: 0.199997;stroke-linecap: round;stroke-linejoin: round;stroke-miterlimit: 10.000000;fill: none;"></path>
  <path d="M153.424286 265.052338L0.000000 265.052338" style="stroke:rgb(100.000000%,60.000610%,78.431702%); stroke-width: 0.199997;stroke-linecap: round;stroke-linejoin: round;stroke-miterlimit: 10.000000;fill: none;"></path>
  <path d="M153.424286 258.078506L0.000000 258.078506" style="stroke:rgb(100.000000%,60.000610%,78.431702%); stroke-width: 0.199997;stroke-linecap: round;stroke-linejoin: round;stroke-miterlimit: 10.000000;fill: none;"></path>
  <path d="M153.424286 251.104675L0.000000 251.104675" style="stroke:rgb(100.000000%,60.000610%,78.431702%); stroke-width: 0.199997;stroke-linecap: round;stroke-linejoin: round;stroke-miterlimit: 10.000000;fill: none;"></path>
  <path d="M153.424286 244.130844L0.000000 244.130844" style="stroke:rgb(100.000000%,60.000610%,78.431702%); stroke-width: 0.199997;stroke-linecap: round;stroke-linejoin: round;stroke-miterlimit: 10.000000;fill: none;"></path>
  <path d="M153.424286 237.157013L0.000000 237.157013" style="stroke:rgb(100.000000%,60.000610%,78.431702%); stroke-width: 0.199997;stroke-linecap: round;stroke-linejoin: round;stroke-miterlimit: 10.000000;fill: none;"></path>
  <path d="M153.424286 230.183182L0.000000 230.183182" style="stroke:rgb(100.000000%,60.000610%,78.431702%); stroke-width: 0.199997;stroke-linecap: round;stroke-linejoin: round;stroke-miterlimit: 10.000000;fill: none;"></path>
  <path d="M153.424286 223.209351L0.000000 223.209351" style="stroke:rgb(100.000000%,60.000610%,78.431702%); stroke-width: 0.199997;stroke-linecap: round;stroke-linejoin: round;stroke-miterlimit: 10.000000;fill: none;"></path>
  <path d="M153.424286 216.235519L0.000000 216.235519" style="stroke:rgb(100.000000%,60.000610%,78.431702%); stroke-width: 0.199997;stroke-linecap: round;stroke-linejoin: round;stroke-miterlimit: 10.000000;fill: none;"></path>
  <path d="M153.424286 209.261688L0.000000 209.261688" style="stroke:rgb(100.000000%,60.000610%,78.431702%); stroke-width: 0.199997;stroke-linecap: round;stroke-linejoin: round;stroke-miterlimit: 10.000000;fill: none;"></path>
  <path d="M153.424286 202.287857L0.000000 202.287857" style="stroke:rgb(100.000000%,60.000610%,78.431702%); stroke-width: 0.199997;stroke-linecap: round;stroke-linejoin: round;stroke-miterlimit: 10.000000;fill: none;"></path>
  <path d="M153.424286 195.314026L0.000000 195.314026" style="stroke:rgb(100.000000%,60.000610%,78.431702%); stroke-width: 0.199997;stroke-linecap: round;stroke-linejoin: round;stroke-miterlimit: 10.000000;fill: none;"></path>
  <path d="M153.424286 188.340195L0.000000 188.340195" style="stroke:rgb(100.000000%,60.000610%,78.431702%); stroke-width: 0.199997;stroke-linecap: round;stroke-linejoin: round;stroke-miterlimit: 10.000000;fill: none;"></path>
  <path d="M153.424286 181.366364L0.000000 181.366364" style="stroke:rgb(100.000000%,60.000610%,78.431702%); stroke-width: 0.199997;stroke-linecap: round;stroke-linejoin: round;stroke-miterlimit: 10.000000;fill: none;"></path>
  <path d="M153.424286 174.392532L0.000000 174.392532" style="stroke:rgb(100.000000%,60.000610%,78.431702%); stroke-width: 0.199997;stroke-linecap: round;stroke-linejoin: round;stroke-miterlimit: 10.000000;fill: none;"></path>
  <path d="M153.424286 167.418701L0.000000 167.418701" style="stroke:rgb(100.000000%,60.000610%,78.431702%); stroke-width: 0.199997;stroke-linecap: round;stroke-linejoin: round;stroke-miterlimit: 10.000000;fill: none;"></path>
  <path d="M153.424286 160.444870L0.000000 160.444870" style="stroke:rgb(100.000000%,60.000610%,78.431702%); stroke-width: 0.199997;stroke-linecap: round;stroke-linejoin: round;stroke-miterlimit: 10.000000;fill: none;"></path>
  <path d="M153.424286 153.471039L0.000000 153.471039" style="stroke:rgb(100.000000%,60.000610%,78.431702%); stroke-width: 0.199997;stroke-linecap: round;stroke-linejoin: round;stroke-miterlimit: 10.000000;fill: none;"></path>
  <path d="M153.424286 146.497208L0.000000 146.497208" style="stroke:rgb(100.000000%,60.000610%,78.431702%); stroke-width: 0.199997;stroke-linecap: round;stroke-linejoin: round;stroke-miterlimit: 10.000000;fill: none;"></path>
  <path d="M153.424286 139.523376L0.000000 139.523376" style="stroke:rgb(100.000000%,60.000610%,78.431702%); stroke-width: 0.199997;stroke-linecap: round;stroke-linejoin: round;stroke-miterlimit: 10.000000;fill: none;"></path>
  <path d="M153.424286 132.549545L0.000000 132.549545" style="stroke:rgb(100.000000%,60.000610%,78.431702%); stroke-width: 0.199997;stroke-linecap: round;stroke-linejoin: round;stroke-miterlimit: 10.000000;fill: none;"></path>
  <path d="M153.424286 125.575714L0.000000 125.575714" style="stroke:rgb(100.000000%,60.000610%,78.431702%); stroke-width: 0.199997;stroke-linecap: round;stroke-linejoin: round;stroke-miterlimit: 10.000000;fill: none;"></path>
  <path d="M153.424286 118.601883L0.000000 118.601883" style="stroke:rgb(100.000000%,60.000610%,78.431702%); stroke-width: 0.199997;stroke-linecap: round;stroke-linejoin: round;stroke-miterlimit: 10.000000;fill: none;"></path>
  <path d="M153.424286 111.628052L0.000000 111.628052" style="stroke:rgb(100.000000%,60.000610%,78.431702%); stroke-width: 0.199997;stroke-linecap: round;stroke-linejoin: round;stroke-miterlimit: 10.000000;fill: none;"></path>
  <path d="M153.424286 104.654221L0.000000 104.654221" style="stroke:rgb(100.000000%,60.000610%,78.431702%); stroke-width: 0.199997;stroke-linecap: round;stroke-linejoin: round;stroke-miterlimit: 10.000000;fill: none;"></path>
  <path d="M153.424286 97.680389L0.000000 97.680389" style="stroke:rgb(100.000000%,60.000610%,78.431702%); stroke-width: 0.199997;stroke-linecap: round;stroke-linejoin: round;stroke-miterlimit: 10.000000;fill: none;"></path>
  <path d="M153.424286 90.706558L0.000000 90.706558" style="stroke:rgb(100.000000%,60.000610%,78.431702%); stroke-width: 0.199997;stroke-linecap: round;stroke-linejoin: round;stroke-miterlimit: 10.000000;fill: none;"></path>
  <path d="M153.424286 83.732727L0.000000 83.732727" style="stroke:rgb(100.000000%,60.000610%,78.431702%); stroke-width: 0.199997;stroke-linecap: round;stroke-linejoin: round;stroke-miterlimit: 10.000000;fill: none;"></path>
  <path d="M153.424286 76.758896L0.000000 76.758896" style="stroke:rgb(100.000000%,60.000610%,78.431702%); stroke-width: 0.199997;stroke-linecap: round;stroke-linejoin: round;stroke-miterlimit: 10.000000;fill: none;"></path>
  <path d="M153.424286 69.785065L0.000000 69.785065" style="stroke:rgb(100.000000%,60.000610%,78.431702%); stroke-width: 0.199997;stroke-linecap: round;stroke-linejoin: round;stroke-miterlimit: 10.000000;fill: none;"></path>
  <path d="M153.424286 62.811234L0.000000 62.811234" style="stroke:rgb(100.000000%,60.000610%,78.431702%); stroke-width: 0.199997;stroke-linecap: round;stroke-linejoin: round;stroke-miterlimit: 10.000000;fill: none;"></path>
  <path d="M153.424286 55.837402L0.000000 55.837402" style="stroke:rgb(100.000000%,60.000610%,78.431702%); stroke-width: 0.199997;stroke-linecap: round;stroke-linejoin: round;stroke-miterlimit: 10.000000;fill: none;"></path>
  <path d="M153.424286 48.863571L0.000000 48.863571" style="stroke:rgb(100.000000%,60.000610%,78.431702%); stroke-width: 0.199997;stroke-linecap: round;stroke-linejoin: round;stroke-miterlimit: 10.000000;fill: none;"></path>
  <path d="M153.424286 41.889740L0.000000 41.889740" style="stroke:rgb(100.000000%,60.000610%,78.431702%); stroke-width: 0.199997;stroke-linecap: round;stroke-linejoin: round;stroke-miterlimit: 10.000000;fill: none;"></path>
  <path d="M153.424286 34.915909L0.000000 34.915909" style="stroke:rgb(100.000000%,60.000610%,78.431702%); stroke-width: 0.199997;stroke-linecap: round;stroke-linejoin: round;stroke-miterlimit: 10.000000;fill: none;"></path>
  <path d="M153.424286 27.942078L0.000000 27.942078" style="stroke:rgb(100.000000%,60.000610%,78.431702%); stroke-width: 0.199997;stroke-linecap: round;stroke-linejoin: round;stroke-miterlimit: 10.000000;fill: none;"></path>
  <path d="M153.424286 20.968246L0.000000 20.968246" style="stroke:rgb(100.000000%,60.000610%,78.431702%); stroke-width: 0.199997;stroke-linecap: round;stroke-linejoin: round;stroke-miterlimit: 10.000000;fill: none;"></path>
  <path d="M153.424286 13.994415L0.000000 13.994415" style="stroke:rgb(100.000000%,60.000610%,78.431702%); stroke-width: 0.199997;stroke-linecap: round;stroke-linejoin: round;stroke-miterlimit: 10.000000;fill: none;"></path>
  <path d="M153.424286 7.020584L0.000000 7.020584" style="stroke:rgb(100.000000%,60.000610%,78.431702%); stroke-width: 0.199997;stroke-linecap: round;stroke-linejoin: round;stroke-miterlimit: 10.000000;fill: none;"></path>
  <path d="M153.424286 0.046753L0.000000 0.046753" style="stroke:rgb(100.000000%,60.000610%,78.431702%); stroke-width: 0.199997;stroke-linecap: round;stroke-linejoin: round;stroke-miterlimit: 10.000000;fill: none;"></path>
  <g transform="matrix(0.707107,-0.707107,0.707107,0.707107,0.000000,0.000000)">
    <path d="M-88.795439 128.245386L14.760671 24.689276C-30.528820 69.978766,25.531458 151.993302,-19.758033 197.282792L83.798077 93.726682" style="stroke:rgb(0.000000%,0.000000%,0.000000%); stroke-width: 6.973832;stroke-linecap: round;stroke-linejoin: round;stroke-miterlimit: 10.000000;fill: none;"></path>
  </g>
  <g transform="matrix(0.707107,-0.707107,0.707107,0.707107,0.000000,0.000000)">
    <path d="M78.866834 88.795439L88.729320 98.657926" style="stroke:rgb(0.000000%,0.000000%,0.000000%); stroke-width: 6.973832;stroke-linecap: round;stroke-linejoin: round;stroke-miterlimit: 10.000000;fill: none;"></path>
  </g>
  <g transform="matrix(0.707107,-0.707107,0.707107,0.707107,0.000000,0.000000)">
    <path d="M9.829427 19.758033L14.760671 24.689276" style="stroke:rgb(0.000000%,0.000000%,0.000000%); stroke-width: 6.973832;stroke-linecap: round;stroke-linejoin: round;stroke-miterlimit: 10.000000;fill: none;"></path>
  </g>
  <g transform="matrix(0.707107,-0.707107,0.707107,0.707107,0.000000,0.000000)">
    <path d="M-93.726682 123.314142L-83.864196 133.176629" style="stroke:rgb(0.000000%,0.000000%,0.000000%); stroke-width: 6.973832;stroke-linecap: round;stroke-linejoin: round;stroke-miterlimit: 10.000000;fill: none;"></path>
  </g>
  <g transform="matrix(0.707107,-0.707107,0.707107,0.707107,0.000000,0.000000)">
    <path d="M-19.758033 197.282792L-14.826789 202.214035" style="stroke:rgb(0.000000%,0.000000%,0.000000%); stroke-width: 6.973832;stroke-linecap: round;stroke-linejoin: round;stroke-miterlimit: 10.000000;fill: none;"></path>
  </g>
  <g transform="matrix(0.500000,-0.000000,-0.000000,0.500000,29.995316 151.371048)" style="fill: rgb(0.000000%,0.000000%,0.000000%);">
    <text font-size="9.962646">1</text>
  </g>
  <path d="M27.895325 153.471039l0 0" style="stroke:rgb(0.000000%,0.000000%,0.000000%); stroke-width: 3.000000;stroke-linecap: round;stroke-linejoin: round;stroke-miterlimit: 10.000000;fill: none;"></path>
  <g transform="matrix(0.500000,-0.000000,-0.000000,0.500000,29.995316 4.920593)" style="fill: rgb(0.000000%,0.000000%,0.000000%);">
    <text font-size="9.962646">2</text>
  </g>
  <path d="M27.895325 7.020584l0 0" style="stroke:rgb(0.000000%,0.000000%,0.000000%); stroke-width: 3.000000;stroke-linecap: round;stroke-linejoin: round;stroke-miterlimit: 10.000000;fill: none;"></path>
  <g transform="matrix(0.500000,-0.000000,-0.000000,0.500000,127.628952 151.371048)" style="fill: rgb(0.000000%,0.000000%,0.000000%);">
    <text font-size="9.962646">3</text>
  </g>
  <path d="M125.528961 153.471039l0 0" style="stroke:rgb(0.000000%,0.000000%,0.000000%); stroke-width: 3.000000;stroke-linecap: round;stroke-linejoin: round;stroke-miterlimit: 10.000000;fill: none;"></path>
  <g transform="matrix(0.500000,-0.000000,-0.000000,0.500000,127.628952 4.920593)" style="fill: rgb(0.000000%,0.000000%,0.000000%);">
    <text font-size="9.962646">4</text>
  </g>
  <path d="M125.528961 7.020584l0 0" style="stroke:rgb(0.000000%,0.000000%,0.000000%); stroke-width: 3.000000;stroke-linecap: round;stroke-linejoin: round;stroke-miterlimit: 10.000000;fill: none;"></path>
  <g transform="matrix(0.500000,-0.000000,-0.000000,0.500000,120.655121 4.920593)" style="fill: rgb(0.000000%,0.000000%,0.000000%);">
    <text font-size="9.962646">5</text>
  </g>
  <path d="M118.555130 7.020584l0 0" style="stroke:rgb(0.000000%,0.000000%,0.000000%); stroke-width: 3.000000;stroke-linecap: round;stroke-linejoin: round;stroke-miterlimit: 10.000000;fill: none;"></path>
  <g transform="matrix(0.500000,-0.000000,-0.000000,0.500000,134.602783 4.920593)" style="fill: rgb(0.000000%,0.000000%,0.000000%);">
    <text font-size="9.962646">6</text>
  </g>
  <path d="M132.502792 7.020584l0 0" style="stroke:rgb(0.000000%,0.000000%,0.000000%); stroke-width: 3.000000;stroke-linecap: round;stroke-linejoin: round;stroke-miterlimit: 10.000000;fill: none;"></path>
</svg>
