<?xml version="1.0"?>
<!-- Created by MetaPost 2.00 on 2019.03.28:1412 -->
<svg version="1.1" xmlns="http://www.w3.org/2000/svg" xmlns:xlink="http://www.w3.org/1999/xlink" width="97.833649" height="305.284927" viewBox="0 0 97.833649 305.284927">
<!-- Original BoundingBox: -0.100006 -0.100006 97.733643 305.184921 -->
  <path d="M0.000000 305.000000L97.633636 305.000000L97.633636 26.046753L0.000000 26.046753Z" style="stroke:rgb(100.000000%,0.000000%,0.000000%); stroke-width: 0.000000;stroke-linecap: round;stroke-linejoin: round;stroke-miterlimit: 10.000000;fill: none;"></path>
  <path d="M0.000000 26.046753L0.000000 305.000000" style="stroke:rgb(100.000000%,60.000610%,78.431702%); stroke-width: 0.199997;stroke-linecap: round;stroke-linejoin: round;stroke-miterlimit: 10.000000;fill: none;"></path>
  <path d="M6.973831 26.046753L6.973831 305.000000" style="stroke:rgb(100.000000%,60.000610%,78.431702%); stroke-width: 0.199997;stroke-linecap: round;stroke-linejoin: round;stroke-miterlimit: 10.000000;fill: none;"></path>
  <path d="M13.947662 26.046753L13.947662 305.000000" style="stroke:rgb(100.000000%,60.000610%,78.431702%); stroke-width: 0.199997;stroke-linecap: round;stroke-linejoin: round;stroke-miterlimit: 10.000000;fill: none;"></path>
  <path d="M20.921494 26.046753L20.921494 305.000000" style="stroke:rgb(100.000000%,60.000610%,78.431702%); stroke-width: 0.199997;stroke-linecap: round;stroke-linejoin: round;stroke-miterlimit: 10.000000;fill: none;"></path>
  <path d="M27.895325 26.046753L27.895325 305.000000" style="stroke:rgb(100.000000%,60.000610%,78.431702%); stroke-width: 0.199997;stroke-linecap: round;stroke-linejoin: round;stroke-miterlimit: 10.000000;fill: none;"></path>
  <path d="M34.869156 26.046753L34.869156 305.000000" style="stroke:rgb(100.000000%,60.000610%,78.431702%); stroke-width: 0.199997;stroke-linecap: round;stroke-linejoin: round;stroke-miterlimit: 10.000000;fill: none;"></path>
  <path d="M41.842987 26.046753L41.842987 305.000000" style="stroke:rgb(100.000000%,60.000610%,78.431702%); stroke-width: 0.199997;stroke-linecap: round;stroke-linejoin: round;stroke-miterlimit: 10.000000;fill: none;"></path>
  <path d="M48.816818 26.046753L48.816818 305.000000" style="stroke:rgb(100.000000%,60.000610%,78.431702%); stroke-width: 0.199997;stroke-linecap: round;stroke-linejoin: round;stroke-miterlimit: 10.000000;fill: none;"></path>
  <path d="M55.790649 26.046753L55.790649 305.000000" style="stroke:rgb(100.000000%,60.000610%,78.431702%); stroke-width: 0.199997;stroke-linecap: round;stroke-linejoin: round;stroke-miterlimit: 10.000000;fill: none;"></path>
  <path d="M62.764481 26.046753L62.764481 305.000000" style="stroke:rgb(100.000000%,60.000610%,78.431702%); stroke-width: 0.199997;stroke-linecap: round;stroke-linejoin: round;stroke-miterlimit: 10.000000;fill: none;"></path>
  <path d="M69.738312 26.046753L69.738312 305.000000" style="stroke:rgb(100.000000%,60.000610%,78.431702%); stroke-width: 0.199997;stroke-linecap: round;stroke-linejoin: round;stroke-miterlimit: 10.000000;fill: none;"></path>
  <path d="M76.712143 26.046753L76.712143 305.000000" style="stroke:rgb(100.000000%,60.000610%,78.431702%); stroke-width: 0.199997;stroke-linecap: round;stroke-linejoin: round;stroke-miterlimit: 10.000000;fill: none;"></path>
  <path d="M83.685974 26.046753L83.685974 305.000000" style="stroke:rgb(100.000000%,60.000610%,78.431702%); stroke-width: 0.199997;stroke-linecap: round;stroke-linejoin: round;stroke-miterlimit: 10.000000;fill: none;"></path>
  <path d="M90.659805 26.046753L90.659805 305.000000" style="stroke:rgb(100.000000%,60.000610%,78.431702%); stroke-width: 0.199997;stroke-linecap: round;stroke-linejoin: round;stroke-miterlimit: 10.000000;fill: none;"></path>
  <path d="M97.633636 26.046753L97.633636 305.000000" style="stroke:rgb(100.000000%,60.000610%,78.431702%); stroke-width: 0.199997;stroke-linecap: round;stroke-linejoin: round;stroke-miterlimit: 10.000000;fill: none;"></path>
  <path d="M97.633636 305.000000L0.000000 305.000000" style="stroke:rgb(100.000000%,60.000610%,78.431702%); stroke-width: 0.199997;stroke-linecap: round;stroke-linejoin: round;stroke-miterlimit: 10.000000;fill: none;"></path>
  <path d="M97.633636 298.026169L0.000000 298.026169" style="stroke:rgb(100.000000%,60.000610%,78.431702%); stroke-width: 0.199997;stroke-linecap: round;stroke-linejoin: round;stroke-miterlimit: 10.000000;fill: none;"></path>
  <path d="M97.633636 291.052338L0.000000 291.052338" style="stroke:rgb(100.000000%,60.000610%,78.431702%); stroke-width: 0.199997;stroke-linecap: round;stroke-linejoin: round;stroke-miterlimit: 10.000000;fill: none;"></path>
  <path d="M97.633636 284.078506L0.000000 284.078506" style="stroke:rgb(100.000000%,60.000610%,78.431702%); stroke-width: 0.199997;stroke-linecap: round;stroke-linejoin: round;stroke-miterlimit: 10.000000;fill: none;"></path>
  <path d="M97.633636 277.104675L0.000000 277.104675" style="stroke:rgb(100.000000%,60.000610%,78.431702%); stroke-width: 0.199997;stroke-linecap: round;stroke-linejoin: round;stroke-miterlimit: 10.000000;fill: none;"></path>
  <path d="M97.633636 270.130844L0.000000 270.130844" style="stroke:rgb(100.000000%,60.000610%,78.431702%); stroke-width: 0.199997;stroke-linecap: round;stroke-linejoin: round;stroke-miterlimit: 10.000000;fill: none;"></path>
  <path d="M97.633636 263.157013L0.000000 263.157013" style="stroke:rgb(100.000000%,60.000610%,78.431702%); stroke-width: 0.199997;stroke-linecap: round;stroke-linejoin: round;stroke-miterlimit: 10.000000;fill: none;"></path>
  <path d="M97.633636 256.183182L0.000000 256.183182" style="stroke:rgb(100.000000%,60.000610%,78.431702%); stroke-width: 0.199997;stroke-linecap: round;stroke-linejoin: round;stroke-miterlimit: 10.000000;fill: none;"></path>
  <path d="M97.633636 249.209351L0.000000 249.209351" style="stroke:rgb(100.000000%,60.000610%,78.431702%); stroke-width: 0.199997;stroke-linecap: round;stroke-linejoin: round;stroke-miterlimit: 10.000000;fill: none;"></path>
  <path d="M97.633636 242.235519L0.000000 242.235519" style="stroke:rgb(100.000000%,60.000610%,78.431702%); stroke-width: 0.199997;stroke-linecap: round;stroke-linejoin: round;stroke-miterlimit: 10.000000;fill: none;"></path>
  <path d="M97.633636 235.261688L0.000000 235.261688" style="stroke:rgb(100.000000%,60.000610%,78.431702%); stroke-width: 0.199997;stroke-linecap: round;stroke-linejoin: round;stroke-miterlimit: 10.000000;fill: none;"></path>
  <path d="M97.633636 228.287857L0.000000 228.287857" style="stroke:rgb(100.000000%,60.000610%,78.431702%); stroke-width: 0.199997;stroke-linecap: round;stroke-linejoin: round;stroke-miterlimit: 10.000000;fill: none;"></path>
  <path d="M97.633636 221.314026L0.000000 221.314026" style="stroke:rgb(100.000000%,60.000610%,78.431702%); stroke-width: 0.199997;stroke-linecap: round;stroke-linejoin: round;stroke-miterlimit: 10.000000;fill: none;"></path>
  <path d="M97.633636 214.340195L0.000000 214.340195" style="stroke:rgb(100.000000%,60.000610%,78.431702%); stroke-width: 0.199997;stroke-linecap: round;stroke-linejoin: round;stroke-miterlimit: 10.000000;fill: none;"></path>
  <path d="M97.633636 207.366364L0.000000 207.366364" style="stroke:rgb(100.000000%,60.000610%,78.431702%); stroke-width: 0.199997;stroke-linecap: round;stroke-linejoin: round;stroke-miterlimit: 10.000000;fill: none;"></path>
  <path d="M97.633636 200.392532L0.000000 200.392532" style="stroke:rgb(100.000000%,60.000610%,78.431702%); stroke-width: 0.199997;stroke-linecap: round;stroke-linejoin: round;stroke-miterlimit: 10.000000;fill: none;"></path>
  <path d="M97.633636 193.418701L0.000000 193.418701" style="stroke:rgb(100.000000%,60.000610%,78.431702%); stroke-width: 0.199997;stroke-linecap: round;stroke-linejoin: round;stroke-miterlimit: 10.000000;fill: none;"></path>
  <path d="M97.633636 186.444870L0.000000 186.444870" style="stroke:rgb(100.000000%,60.000610%,78.431702%); stroke-width: 0.199997;stroke-linecap: round;stroke-linejoin: round;stroke-miterlimit: 10.000000;fill: none;"></path>
  <path d="M97.633636 179.471039L0.000000 179.471039" style="stroke:rgb(100.000000%,60.000610%,78.431702%); stroke-width: 0.199997;stroke-linecap: round;stroke-linejoin: round;stroke-miterlimit: 10.000000;fill: none;"></path>
  <path d="M97.633636 172.497208L0.000000 172.497208" style="stroke:rgb(100.000000%,60.000610%,78.431702%); stroke-width: 0.199997;stroke-linecap: round;stroke-linejoin: round;stroke-miterlimit: 10.000000;fill: none;"></path>
  <path d="M97.633636 165.523376L0.000000 165.523376" style="stroke:rgb(100.000000%,60.000610%,78.431702%); stroke-width: 0.199997;stroke-linecap: round;stroke-linejoin: round;stroke-miterlimit: 10.000000;fill: none;"></path>
  <path d="M97.633636 158.549545L0.000000 158.549545" style="stroke:rgb(100.000000%,60.000610%,78.431702%); stroke-width: 0.199997;stroke-linecap: round;stroke-linejoin: round;stroke-miterlimit: 10.000000;fill: none;"></path>
  <path d="M97.633636 151.575714L0.000000 151.575714" style="stroke:rgb(100.000000%,60.000610%,78.431702%); stroke-width: 0.199997;stroke-linecap: round;stroke-linejoin: round;stroke-miterlimit: 10.000000;fill: none;"></path>
  <path d="M97.633636 144.601883L0.000000 144.601883" style="stroke:rgb(100.000000%,60.000610%,78.431702%); stroke-width: 0.199997;stroke-linecap: round;stroke-linejoin: round;stroke-miterlimit: 10.000000;fill: none;"></path>
  <path d="M97.633636 137.628052L0.000000 137.628052" style="stroke:rgb(100.000000%,60.000610%,78.431702%); stroke-width: 0.199997;stroke-linecap: round;stroke-linejoin: round;stroke-miterlimit: 10.000000;fill: none;"></path>
  <path d="M97.633636 130.654221L0.000000 130.654221" style="stroke:rgb(100.000000%,60.000610%,78.431702%); stroke-width: 0.199997;stroke-linecap: round;stroke-linejoin: round;stroke-miterlimit: 10.000000;fill: none;"></path>
  <path d="M97.633636 123.680389L0.000000 123.680389" style="stroke:rgb(100.000000%,60.000610%,78.431702%); stroke-width: 0.199997;stroke-linecap: round;stroke-linejoin: round;stroke-miterlimit: 10.000000;fill: none;"></path>
  <path d="M97.633636 116.706558L0.000000 116.706558" style="stroke:rgb(100.000000%,60.000610%,78.431702%); stroke-width: 0.199997;stroke-linecap: round;stroke-linejoin: round;stroke-miterlimit: 10.000000;fill: none;"></path>
  <path d="M97.633636 109.732727L0.000000 109.732727" style="stroke:rgb(100.000000%,60.000610%,78.431702%); stroke-width: 0.199997;stroke-linecap: round;stroke-linejoin: round;stroke-miterlimit: 10.000000;fill: none;"></path>
  <path d="M97.633636 102.758896L0.000000 102.758896" style="stroke:rgb(100.000000%,60.000610%,78.431702%); stroke-width: 0.199997;stroke-linecap: round;stroke-linejoin: round;stroke-miterlimit: 10.000000;fill: none;"></path>
  <path d="M97.633636 95.785065L0.000000 95.785065" style="stroke:rgb(100.000000%,60.000610%,78.431702%); stroke-width: 0.199997;stroke-linecap: round;stroke-linejoin: round;stroke-miterlimit: 10.000000;fill: none;"></path>
  <path d="M97.633636 88.811234L0.000000 88.811234" style="stroke:rgb(100.000000%,60.000610%,78.431702%); stroke-width: 0.199997;stroke-linecap: round;stroke-linejoin: round;stroke-miterlimit: 10.000000;fill: none;"></path>
  <path d="M97.633636 81.837402L0.000000 81.837402" style="stroke:rgb(100.000000%,60.000610%,78.431702%); stroke-width: 0.199997;stroke-linecap: round;stroke-linejoin: round;stroke-miterlimit: 10.000000;fill: none;"></path>
  <path d="M97.633636 74.863571L0.000000 74.863571" style="stroke:rgb(100.000000%,60.000610%,78.431702%); stroke-width: 0.199997;stroke-linecap: round;stroke-linejoin: round;stroke-miterlimit: 10.000000;fill: none;"></path>
  <path d="M97.633636 67.889740L0.000000 67.889740" style="stroke:rgb(100.000000%,60.000610%,78.431702%); stroke-width: 0.199997;stroke-linecap: round;stroke-linejoin: round;stroke-miterlimit: 10.000000;fill: none;"></path>
  <path d="M97.633636 60.915909L0.000000 60.915909" style="stroke:rgb(100.000000%,60.000610%,78.431702%); stroke-width: 0.199997;stroke-linecap: round;stroke-linejoin: round;stroke-miterlimit: 10.000000;fill: none;"></path>
  <path d="M97.633636 53.942078L0.000000 53.942078" style="stroke:rgb(100.000000%,60.000610%,78.431702%); stroke-width: 0.199997;stroke-linecap: round;stroke-linejoin: round;stroke-miterlimit: 10.000000;fill: none;"></path>
  <path d="M97.633636 46.968246L0.000000 46.968246" style="stroke:rgb(100.000000%,60.000610%,78.431702%); stroke-width: 0.199997;stroke-linecap: round;stroke-linejoin: round;stroke-miterlimit: 10.000000;fill: none;"></path>
  <path d="M97.633636 39.994415L0.000000 39.994415" style="stroke:rgb(100.000000%,60.000610%,78.431702%); stroke-width: 0.199997;stroke-linecap: round;stroke-linejoin: round;stroke-miterlimit: 10.000000;fill: none;"></path>
  <path d="M97.633636 33.020584L0.000000 33.020584" style="stroke:rgb(100.000000%,60.000610%,78.431702%); stroke-width: 0.199997;stroke-linecap: round;stroke-linejoin: round;stroke-miterlimit: 10.000000;fill: none;"></path>
  <path d="M97.633636 26.046753L0.000000 26.046753" style="stroke:rgb(100.000000%,60.000610%,78.431702%); stroke-width: 0.199997;stroke-linecap: round;stroke-linejoin: round;stroke-miterlimit: 10.000000;fill: none;"></path>
  <g transform="matrix(0.707107,-0.707107,0.707107,0.707107,0.000000,0.000000)">
    <path d="M16.100868 23.349079L-141.698919 181.148865" style="stroke:rgb(0.000000%,0.000000%,0.000000%); stroke-width: 6.973832;stroke-linecap: round;stroke-linejoin: round;stroke-miterlimit: 10.000000;fill: none;"></path>
  </g>
  <g transform="matrix(0.707107,-0.707107,0.707107,0.707107,0.000000,0.000000)">
    <path d="M16.100868 23.349079L50.619571 57.867782" style="stroke:rgb(0.000000%,0.000000%,0.000000%); stroke-width: 6.973832;stroke-linecap: round;stroke-linejoin: round;stroke-miterlimit: 10.000000;fill: none;"></path>
  </g>
  <g transform="matrix(0.707107,-0.707107,0.707107,0.707107,0.000000,0.000000)">
    <path d="M-141.698919 181.148865L-107.180215 215.667568" style="stroke:rgb(0.000000%,0.000000%,0.000000%); stroke-width: 6.973832;stroke-linecap: round;stroke-linejoin: round;stroke-miterlimit: 10.000000;fill: none;"></path>
  </g>
  <g transform="matrix(0.500000,-0.000000,-0.000000,0.500000,29.995316 3.025269)" style="fill: rgb(0.000000%,0.000000%,0.000000%);">
    <text font-size="9.962646">1</text>
  </g>
  <path d="M27.895325 5.125259l0 0" style="stroke:rgb(0.000000%,0.000000%,0.000000%); stroke-width: 3.000000;stroke-linecap: round;stroke-linejoin: round;stroke-miterlimit: 10.000000;fill: none;"></path>
  <g transform="matrix(0.500000,-0.000000,-0.000000,0.500000,29.995316 226.187866)" style="fill: rgb(0.000000%,0.000000%,0.000000%);">
    <text font-size="9.962646">2</text>
  </g>
  <path d="M27.895325 228.287857l0 0" style="stroke:rgb(0.000000%,0.000000%,0.000000%); stroke-width: 3.000000;stroke-linecap: round;stroke-linejoin: round;stroke-miterlimit: 10.000000;fill: none;"></path>
  <g transform="matrix(0.500000,-0.000000,-0.000000,0.500000,29.995316 3.025269)" style="fill: rgb(0.000000%,0.000000%,0.000000%);">
    <text font-size="9.962646">3</text>
  </g>
  <path d="M27.895325 5.125259l0 0" style="stroke:rgb(0.000000%,0.000000%,0.000000%); stroke-width: 3.000000;stroke-linecap: round;stroke-linejoin: round;stroke-miterlimit: 10.000000;fill: none;"></path>
  <g transform="matrix(0.500000,-0.000000,-0.000000,0.500000,78.812134 3.025269)" style="fill: rgb(0.000000%,0.000000%,0.000000%);">
    <text font-size="9.962646">4</text>
  </g>
  <path d="M76.712143 5.125259l0 0" style="stroke:rgb(0.000000%,0.000000%,0.000000%); stroke-width: 3.000000;stroke-linecap: round;stroke-linejoin: round;stroke-miterlimit: 10.000000;fill: none;"></path>
  <g transform="matrix(0.500000,-0.000000,-0.000000,0.500000,29.995316 226.187866)" style="fill: rgb(0.000000%,0.000000%,0.000000%);">
    <text font-size="9.962646">5</text>
  </g>
  <path d="M27.895325 228.287857l0 0" style="stroke:rgb(0.000000%,0.000000%,0.000000%); stroke-width: 3.000000;stroke-linecap: round;stroke-linejoin: round;stroke-miterlimit: 10.000000;fill: none;"></path>
  <g transform="matrix(0.500000,-0.000000,-0.000000,0.500000,78.812134 226.187866)" style="fill: rgb(0.000000%,0.000000%,0.000000%);">
    <text font-size="9.962646">6</text>
  </g>
  <path d="M76.712143 228.287857l0 0" style="stroke:rgb(0.000000%,0.000000%,0.000000%); stroke-width: 3.000000;stroke-linecap: round;stroke-linejoin: round;stroke-miterlimit: 10.000000;fill: none;"></path>
</svg>
